name="Runeterra Universalis"
version="2.0"
replace_path="common/bookmarks"
replace_path="common/colonial_regions"
replace_path="common/countries"
replace_path="common/country_tags"
replace_path="common/disasters"
replace_path="common/client_states"
replace_path="common/ideas"
replace_path="common/mercenary_companies"
replace_path="common/parliament_bribes"
replace_path="common/parliament_issues"
replace_path="common/personal_deities"
replace_path="common/province_names"
replace_path="common/religions"
replace_path="common/state_edicts"
replace_path="common/triggered_modifiers"
replace_path="decisions"
replace_path="events"
replace_path="gfx/flags"
replace_path="gfx/loadingscreens"
replace_path="history/advisors"
replace_path="history/countries"
replace_path="history/diplomacy"
replace_path="history/provinces"
replace_path="history/wars"
replace_path="map"
replace_path="missions"
tags={
	"Alternative History"
	"Balance"
	"Events"
	"Expansion"
	"Fixes"
	"Gameplay"
	"Graphics"
	"Map"
	"Military"
	"Missions and Decisions"
	"National Ideas"
	"Religion"
	"Technologies"
	"Trade"
	"Utilities"
}
picture="runeterra_universalis_logo.png"
supported_version="1.33.*"
remote_file_id="2623419485"