trade_company_winters_claw = {
	color = { 255 155 0 }
	
	provinces = {
		466 467 468 469 470 471 472 473 474 475 476 477 478 479 480 481 482 483 484 485 486 487 488 489 490 491 492 493 494 495 496 497 498 499 500
		501 502 503 504 505 506 507 508 509 510 511 512 513 514 515 516 517 518 519 520 521 522 523 524 525 526 527 528 529 530 531 532 533 534 535 536 
		537 538 539 540 541 542 543 544 690
		872 873 875 970 971 972 973 974 975 976 977 978 979 980 981 982 983 984 985 986 987 988 989 990 
		991 992 993 994 995 996 997 998 999 1000 1074 1077 1078 1083 1085 1091 1095 1097 1099 1102 1103
	}
}

trade_company_avarosan = {
	color = { 72 201 176 }
	
	provinces = {
		922 932 936 937 938 939 940 941 942 943 944 945 946 947 948 949 950 951 952 953 954 955 956 957 958 959 960
		961 962 963 964 965 966 967 968 969 933 934 935 891 892 893 894 895 896 897 898 900 901 902 903 904 905 906
		907 908 909 910 911 912 913 914 915 916 917 918 919 920 921 923 924 925 926 927 928 929 930 931 3025 
		828 829 830 831 832 833 834 835 836 837 838 839 840 841 842 843 844 845 846 847 848 849 850
		851 852 853 855 856 857 858 859 860 861 862 863 864 865 866 867 868 869 870 871 874 878 879
		881 883 884 885 886 887 888 889 890 1001 1002 1003 1004 1005 1006 1007 1008 1009 1010 1011
		1012 1013 1014 1015 1016 
	}
}

trade_company_frostguards = {
	color = { 10 75 140 }
	
	provinces = {
		876 877 880 882 1017 1018 1019 1020 1021 1022 1023 1024 1025 1026 1027 1028 1029 1030
		1031 1032 1033 1034 1035 1036 1037 1038 1039 1040 1041 1042 1043 1044 1045 1046 1047
		1048 1049 1050 1051 1052 1053 1054 1055 1056 1057 1058 1059 1060 1061 1062 1063 1064
		1065 1066 1067 1068 1069 1070 1071 1072 1073 1079 1100
		206 238 807 1075 1076 1080 1081 1082 1084 1086 1087 1088 1089 1090 1092 1093 1094 1096 1098
		1101 1104 1105 1106 1107 1108 1109 1110 1111 1112 1113 1114 1115 1116 1117 1118 1119
		1120 1121 1122 1123 1124 1125 1126 1127 1128 1129 1130 1131 1132 1133 1134 1135 1136
		1137 1138 1139 1140 1141 1142 1143 1144 1145 1146 1147 1148 1149 1150 1151 1152 1153
		1154 1155 1156 1157 1158 1159
	}
}

trade_company_demacia = {
	color = { 255 255 0 }
	
	provinces = {
		1165 1166 1167 1168 1169 1170 1171 1172 1173 1174 1175 1176 1177 1178 1179 1180 1181 1182 1183 1184 1185 1186 1187 1188 1189 1190 1191 1192
		1193 1194 1195 1196 1197 1198 1199 1200 1201 1202 1203 1204 1205 1206 1207 1208 1211 1212 1217 1218 1219 1220 1221 1222 1223 1224 1225 1226
		1227 1228 1230 1231 1232 1233 1234 1235 1236 1237 1238 1239 1240 1241 1242 1243 1244 1245 1246 1247 1248 1249 1250 1251
	}
}

trade_company_icathia = {
	color = { 214 0 255 }
	
	provinces = {
		245 618 619 620 621 622 623 624 625 627 628 629 630 631 632 633 634 635 637 638 639 640 641 642 643 644 645 646 647 648 649 650 651 652 653 654 655 656 657 658 659 660 661 662 663 664 665 666 667 668 669 670 671 672 673 674 1839
	}
}

trade_company_ixtal = {
	color = { 28 120 52 }
	
	provinces = {
		680 681 682 683 685 686 687 688 689 691 692 693 694 695 696 697 698 699 700 701 702 703 704 705 706 707 708 709 710 711 712 713 714 715 716 717 718 719 720 721 722 723 724 725 726 727 728 729 730 731 732 733 734 737 738 744 745 746 765 769 
		741 749 766 767 768 771 772 773 774 775 779 780 781 782 783 784 785 786 787 788 789 790 791 792 793 794 795 796 797 798 799 800 801 802 803 808 809 810 811 814 818 819 820 821 824 3026
		231 675 676 677 678 679 735 736 739 740 742 743 747 748 750 751 752 753 754 755 756 757 758 759 760 761 762 763 764 770 776 777 778 804 805 806 812 813 815 816 817 822 823 825 826 827 854 899 1999
		3027 3028 3029 3030 3031 3032 3033 3034 3035
	}
}

trade_company_bilgewater = {
	color = { 86 76 18 }
	
	provinces = {
		239 578 579 580 581 582 583 584 585 586 587 588 2710 2711 2712 2713 2714 2715 2716 2717 2718 2719 2720 2721 2722 2723 2724 2725 2726 2727 2728 2729
	}
}

trade_company_the_isles = {
	color = { 101 111 102 }
	
	provinces = {
		234 545 546 547 548 549 550 551 552 553 554 555 556 557 558 559 560 561 562 563 564 565 566 567 568 569 570 571 572 573 574 575 576 577
	}
}

trade_company_the_cliff = {
	color = { 173 177 30 }
	
	provinces = {
		235 589 590 591 592 593 594 595 596 597 598 599 600 601 602 603 604
	}
}

trade_company_north_valoran = {
	color = { 175 255 105 }
	
	provinces = {
		237 1252 1253 1254 1256 1257 1258 1259 1260 1261 1262 1263 1267 1354 1355 1357 1358 1359 1360 1361 1362 1363 1365 1366 1367 1368 1369 1370 1371 1372 1373 1374 1375 1376 1377 1378 1379 1380 1381 1382 1383 1384 1385 1386 1387 1388 1389 1390 1391 1392 1393 1394 1395 1396 1397 1398 1399 1400 1401 1402 1403 1404 1405 1406 1407 1408 1409 1410 1411 1412 1413 1414 1418 1419 1422 1424 1425 1426 1429 1430 1431 1434 1435 1436 1437 1438 1439 1440 1442
		2886 2887 2888 2889 2890 2891 2592 2593 2594 2601 2602 2603 2604 2605 2906 2909 2910 2915 2916 2917 2918 2919 2920 2921 2922 2923 2924 2925 2926 2927 2928 2929 2930 2931 2932 2933 2934 2935 2936 2937 2938 2939 2940 2941 2942 2943 2944 2945 2946 2947 2948 2949 2950 2951 2952 2953 2954 2955 2956 2957 2958 2959 2960 2961 2962 2963 2964 2965 2966 2967 2968 2969 2970 2971 2972 2973 2974 2975 2976 2977 2978 2979 2980 2981 2982 2983 2984 2985 2986 2987 2988 2989 2990 2991 2992 2993 2994 2995 2996 2997 2998 2999 3000 3001 3002 3003 3004 3005 3006 3007 3008 3009 3010 3011 3012
	}
}

trade_company_south_valoran = {
	color = { 166 46 99 }
	
	provinces = {
		1209 1210 1213 1214 1215 1216 1229 1255 1264 1265 1266 1268 1269 1270 1271 1272 1273 1274 1275 1276 1277 1280 1281 1287 1288 1289 1293 1294 1295 1296 1297 1298 1299 1300 1301 1332 1335 1340 1341 1342 1343 1344 1345 1346 1347 1348 1349 1350 1351 1352 1353 1356
		1278 1279 1282 1283 1284 1285 1286 1290 1291 1292 1302 1303 1304 1305 1306 1307 1308 1309 1310 1311 1312 1313 1314 1315 1316 1317 1318 1319 1320 1321 1322 1323 1324 1325 1326 1327 1328 1329 1330 1331 1333 1334 1336 1337 1338 1339 1364 1415 1416 1417 1420 1421 1423 1427 1428 1432 1433 1441
		2586 2587 2588 2667 2668 2669 2670 2671 2672 2673 2674 2675 2676 2677 2678 2679 2680 2681 2682 2683 2684 2685 2686 2687 2688 2689 2690 2691 2692 2693 2694 2695 2696 2697 2698 2699 2700 2701 2702 2703 2704 2705 2706 2707 2708 2709 2780 2783 2789 2796 2809 2811 2822 2823 2824 2825 2826 2829 2830 2831 2832 2833 2834 2835 2836 2837 2838 2839 2840 2841 2842 2844 2847 2848 2849 2850 2851 2852 2853 2857 2858 2859 2860 2861 2867 2868 2875 2876 2877 2880 2881 2882 2883 2884 2885
	}
}

trade_company_noxus = {
	color = { 255 0 0 }
	
	provinces = {
		236 2584 2589 2590 2591 2595 2598 2599 2600 2769 2771 2772 2774 2775 2776 2778 2779 2784 2785 2786 2787 2790 2791 2792 2793 2794 2795 2797 2798 2799 2800 2801 2802 2803 2804 2805 2806 2807 2808 2810 2812 2813 2814 2815 2816 2817 2818 2819 2820 2821 2827 2828 2843 2845 2846 2854 2855 2856 2862 2863 2864 2865 2866 2869 2870 2871 2872 2873 2874 2878 2879 2892 2893 2894 2895 2896 2897 2898 2899 2900 2901 2902 2903 2904 2905 2907 2908 2911 2912 2913 2914
		2577 2578 2579 2580 2581 2582 2583 2585 2596 2597 2606 2607 2608 2609 2610 2611 2612 2613 2614 2615 2616 2617 2618 2619 2620 2621 2622 2623 2624 2625 2626 2627 2628 2629 2630 2631 2632 2633 2634 2635 2636 2637 2638 2639 2640 2641 2642 2643 2644 2645 2646 2647 2648 2649 2650 2651 2652 2653 2654 2655 2656 2657 2658 2659 2660 2661 2662 2663 2664 2665 2666 2730 2731 2732 2733 2734 2735 2736 2737 2738 2739 2740 2741 2742 2743 2744 2745 2746 2747 2748 2749 2750 2751 2752 2753 2754 2755 2756 2757 2758 2759 2760 2761 2762 2763 2764 2765 2766 2767 2768 2770 2773 2777 2781 2782 2788
	}
}