End of the Darkin Wars
	Freljord	10/2
	Shurima		10/2
	Ionia		10/2
	Ixtal		10/2
	Void		10/2

Reign of the Iron Revenant
	Freljord	5/1
	Shurima		5/1
	Ionia		5/1
	Ixtal		5/1
	Void		5/1
	Noxus		5/1

The Ruination
	Valoran		5/0
	Shurima		5/0
	Void		5/0

Resurgence of Civilizations
	Runeterra	9/0
	Void		3/0