economic_hegemon = {
	allow = {
		is_great_power = yes
		monthly_income = 250
		NOT = { any_other_great_power = { monthly_income = root } }
		NOT = { has_country_modifier = lost_hegemony }
	}
	
	base = {
		free_adm_policy = 1
		monarch_admin_power = 1
		war_exhaustion = -0.1
		global_spy_defence = 0.25
		mercenary_manpower = 1.0
	}
	
	scale = {
		mercenary_discipline = 0.10
		global_trade_goods_size_modifier = 0.25
		min_autonomy_in_territories = -0.25
	}
	
	max = {
		governing_capacity_modifier = 0.20
	}
}