AVA_ideas = {
	start = {
		diplomatic_upkeep = 1
		improve_relation_modifier = 0.15
	}
	
	bonus = {
		tolerance_heathen = 3
	}

	trigger = {
		tag = AVA
	}
	free = yes
	
	AVA_idea_1 = {
		global_tax_modifier = 0.1
	}	
	AVA_idea_2 = {
		drill_gain_modifier = 0.10
        land_morale = 0.10
	}		
	AVA_idea_3 = {
		production_efficiency = 0.1
        state_maintenance_modifier = -0.1
	}
	AVA_idea_4 = {
		war_exhaustion = -0.10
	}		
	AVA_idea_5 = {
		army_tradition_decay = -0.01
	}
	AVA_idea_6 = {
		trade_steering = 0.1
        merchants = 1
	}
	AVA_idea_7 = {
		global_spy_defence = 0.25
	}
}

FRO_ideas = {
	start = {
		recover_army_morale_speed = 0.10
		land_attrition = -0.10
	}
	
	bonus = {
		great_project_upgrade_cost = -0.10
	}

	trigger = {
		tag = FRO
	}
	free = yes
	
	FRO_idea_1 = {
		tolerance_own = 1
	}	
	FRO_idea_2 = {
		land_morale = 0.10
	}		
	FRO_idea_3 = {
		infantry_shock = 1
	}
	FRO_idea_4 = {
		mercenary_cost = -0.10
	}		
	FRO_idea_5 = {
		warscore_cost_vs_other_religion = -0.25
	}
	FRO_idea_6 = {
		merc_maintenance_modifier = -0.10
	}
	FRO_idea_7 = {
		inflation_reduction = 0.1
	}
}

WNC_ideas = {
	start = {
		cav_to_inf_ratio = 0.25
		cavalry_cost = -0.15
	}
	
	bonus = {
		land_forcelimit_modifier = 0.33
	}

	trigger = {
		tag = WNC
	}
	free = yes
	
	WNC_idea_1 = {
		ae_impact = -0.25
	}	
	WNC_idea_2 = {
		loot_amount = 0.20
	}		
	WNC_idea_3 = {
		cavalry_power = 0.10
	}
	WNC_idea_4 = {
		cav_to_inf_ratio = 0.25
	}		
	WNC_idea_5 = {
		cavalry_flanking = 0.10
	}
	WNC_idea_6 = {
		min_autonomy_in_territories = -0.1
	}
	WNC_idea_7 = {
		cavalry_shock = 1
	}
}

ORN_ideas = {
	start = {
		global_supply_limit_modifier = 0.33
		global_regiment_recruit_speed = -0.25
	}
	bonus = {
		fire_damage_received = -0.05
	}
	trigger = {
		tag = ORN
	}
	free = yes
	ORN_idea_1 = {
		build_time = -0.33
	}
	ORN_idea_2 = {
		fire_damage = 0.10
	}
	ORN_idea_3 = {
		tolerance_own = 2
	}
	ORN_idea_4 = {
		global_trade_power = 0.1
	}
	ORN_idea_5 = {
		caravan_power = 0.2
	}
	ORN_idea_6 = {
		diplomatic_reputation = 2
	}
	ORN_idea_7 = {
		prestige = 1
	}
}

ANI_ideas = {
	start = {
		global_missionary_strength = 0.02
		war_exhaustion = -0.10
	}
	trigger = {
		tag = ANI
	}
	free = yes
	bonus = {
		artillery_shock = 1
	}
	ANI_idea_1 = {
		rival_border_fort_maintenance = -0.25
		build_cost = -0.1
	}
	ANI_idea_2 = {
		diplomatic_upkeep = 1
	}
	ANI_idea_3 = {
		global_heretic_missionary_strength = 0.03
	}
	ANI_idea_4 = {
		global_unrest = -2
	}
	ANI_idea_5 = {
		yearly_corruption = -0.1
	}
	ANI_idea_6 = {
		liberty_desire_from_subject_development = -0.25
	}
	ANI_idea_7 = {
		production_efficiency = 0.10
	}
}

URS_ideas = {
	start = {
		shock_damage = 0.10
		movement_speed = 0.15
        may_establish_frontier = yes
	}
	trigger = {
		tag = URS
	}
	free = yes
	bonus = {
		leader_land_shock = 2
	}
	URS_idea_1 = {
		unjustified_demands = -0.33
	}
	URS_idea_2 = {
		global_tax_modifier = 0.1
	}
	URS_idea_3 = {
		mil_tech_cost_modifier = -0.05
		build_cost = -0.05
	}
	URS_idea_4 = {
		colonists = 1
	}
	URS_idea_5 = {
		reduced_liberty_desire = 10
	}
	URS_idea_6 = {
		devotion = 1
	}
	URS_idea_7 = {
		global_own_trade_power = 0.1
	}
}

TRO_ideas = {
	start = {
		innovativeness_gain = 0.25
		advisor_pool = 2
	}
	trigger = {
		tag = TRO
	}
	free = yes
	bonus = {
		core_creation = -0.20
	}
	TRO_idea_1 = {
		infantry_power = 0.10
	}
	TRO_idea_2 = {
		inflation_reduction = 0.1
	}
	TRO_idea_3 = {
		idea_cost = -0.1
	}
	TRO_idea_4 = {
		yearly_corruption = -0.15
	}
	TRO_idea_5 = {
		legitimacy = 1
		republican_tradition = 0.5
		devotion = 1
		horde_unity = 1
		meritocracy = 1
	}
	TRO_idea_6 = {
		siege_ability = 0.10
	}
	TRO_idea_7 = {
		technology_cost = -0.1
	}
}

ICE_ideas = {
	start = {
		hostile_attrition = 1
		movement_speed = 0.20
	}
	trigger = {
		tag = ICE
	}
	free = yes
	bonus = {
		manpower_recovery_speed = 0.25
	}
	ICE_idea_1 = {
		cavalry_power = 0.10
	}
	ICE_idea_2 = {
		shock_damage_received = -0.10
	}
	ICE_idea_3 = {
		shock_damage = 0.10
	}
	ICE_idea_4 = {
		recover_army_morale_speed = 0.15
	}
	ICE_idea_5 = {
		reinforce_speed = 0.10
	}
	ICE_idea_6 = {
		global_regiment_recruit_speed = -0.15
	}
	ICE_idea_7 = {
		cavalry_shock = 1
	}
}

NAL_ideas = {
	start = {
		caravan_power = 0.2
		embargo_efficiency = 0.30
	}
	trigger = {
		tag = NAL
	}
	free = yes
	bonus = {
		global_trade_power = 0.1
	}
	NAL_idea_1 = {
		trade_efficiency = 0.15
	}
	NAL_idea_2 = {
		merchants = 1
	}
	NAL_idea_3 = {
		diplomatic_reputation = 2
	}
	NAL_idea_4 = {
		diplomatic_upkeep = 1
	}
	NAL_idea_5 = {
		mercantilism_cost = -0.25
	}
	NAL_idea_6 = {
		trade_steering = 0.1
	}
	NAL_idea_7 = {
		global_ship_trade_power = 0.2
	}
}

YET_ideas = {
	start = {
		technology_cost = -0.05
		idea_cost = -0.05
	}
	trigger = {
		tag = YET
	}
	free = yes
	bonus = {
		free_leader_pool = 2
	}
	YET_idea_1 = {
		land_morale = 0.10
	}
	YET_idea_2 = {
		innovativeness_gain = 0.25
	}
	YET_idea_3 = {
		embracement_cost = -0.25
	}
	YET_idea_4 = {
		free_policy = 1
	}
	YET_idea_5 = {
		shock_damage_received = -0.15
	}
	YET_idea_6 = {
		global_manpower_modifier = 0.20
	}
	YET_idea_7 = {
		global_institution_spread = 0.25
	}
}

TIC_ideas = {
	start = {
		missionaries = 1
		diplomatic_reputation = 1
	}
	trigger = {
		tag = TIC
	}
	free = yes
	bonus = {
		great_project_upgrade_cost = -0.10
	}
	TIC_idea_1 = {
		tolerance_own = 1
	}
	TIC_idea_2 = {
		diplomatic_upkeep = 1
	}
	TIC_idea_3 = {
		infantry_shock = 1	
	}
	TIC_idea_4 = {
		mercenary_cost = -0.10
	}
	TIC_idea_5 = {
		warscore_cost_vs_other_religion = -0.25
	}
	TIC_idea_6 = {
		merc_maintenance_modifier = -0.10
	}
	TIC_idea_7 = {
		infantry_fire = 1	
	}
}

FRE_ideas = {
	start = {
		diplomatic_upkeep = 1
		ae_impact = -0.25
	}
	trigger = {
		tag = FRE
	}
	free = yes
	bonus = {
		land_forcelimit_modifier = 0.50
	}
	FRE_idea_1 = {
		production_efficiency = 0.2
	}
	FRE_idea_2 = {
		build_time = -0.33
	}
	FRE_idea_3 = {
		global_unrest = -2
	}
	FRE_idea_4 = {
		global_tax_modifier = 0.2
	}
	FRE_idea_5 = {
		global_trade_power = 0.1
	}
	FRE_idea_6 = {
		great_project_upgrade_cost = -0.10
	}
	FRE_idea_7 = {
		artillery_shock = 1
	}
}

KOP_ideas = {
	start = {
		diplomatic_reputation = 2
		ae_impact = -0.25
	}
	trigger = {
		tag = KOP
	}
	free = yes
	bonus = {
		religious_unity = 0.5
	}
	KOP_idea_1 = {
		land_morale = 0.15
	}
	KOP_idea_2 = {
		infantry_fire = 1
		infantry_shock = 1
	}
	KOP_idea_3 = {
		movement_speed = 0.10
	}
	KOP_idea_4 = {
		trade_efficiency = 0.20
	}
	KOP_idea_5 = {
		merchants = 1
	}
	KOP_idea_6 = {
		colonists = 1
	}
	KOP_idea_7 = {
		years_of_nationalism = -10
	}
}

GSH_ideas = {
	start = {
		leader_land_manuever = 1
		leader_siege = 1
	}
	trigger = {
		tag = GSH
	}
	free = yes
	bonus = {
		leader_land_fire = 1
	}
	GSH_idea_1 = {
		land_maintenance_modifier = -0.15
	}
	GSH_idea_2 = {
		diplomats = 1
	}
	GSH_idea_3 = {
		merchants = 1
	}
	GSH_idea_4 = {
		colonists = 1
	}
	GSH_idea_5 = {
		missionaries = 1	
	}
	GSH_idea_6 = {
		leader_land_shock = 1
	}
	GSH_idea_7 = {
		land_morale = 0.10
	}
}

SHU_ideas = {
	start = {
		fort_maintenance_modifier = -0.25
		defensiveness = 0.10
	}
	trigger = {
		tag = SHU
	}
	free = yes
	bonus = {
		discipline = 0.05
		trade_efficiency = 0.10
	}
	SHU_idea_1 = {
		land_maintenance_modifier = -0.15
	}
	SHU_idea_2 = {
		diplomats = 1
	}
	SHU_idea_3 = {
		leader_land_shock = 1
	}
	SHU_idea_4 = {
		improve_relation_modifier = 0.25
	}
	SHU_idea_5 = {
		leader_land_manuever = 1
	}
	SHU_idea_6 = {
		leader_land_fire = 1
	}
	SHU_idea_7 = {
		leader_siege = 1
	}
}

MNS_ideas = {
	start = {
		infantry_power = 0.10
		global_manpower_modifier = 0.20
	}
	trigger = {
		tag = MNS
	}
	free = yes
	bonus = {
		merc_maintenance_modifier = -0.10
	}
	MNS_idea_1 = {
		spy_offence = 0.15
	}
	MNS_idea_2 = {
		siege_ability = 0.10
	}
	MNS_idea_3 = {
		vassal_income = 0.25
	}
	MNS_idea_4 = {
		global_unrest = -3
	}
	MNS_idea_5 = {
		years_of_nationalism = -4
	}
	MNS_idea_6 = {
		mercenary_discipline = 0.10
	}
	MNS_idea_7 = {
		reform_progress_growth = 0.15
	}
}

TAR_ideas = {
	start = {
		tolerance_heretic = 2
		global_spy_defence = 0.1
	}
	trigger = {
		tag = TAR
	}
	free = yes
	bonus = {
		naval_morale = 0.1
	}
	TAR_idea_1 = {
		shock_damage_received = -0.10
	}
	TAR_idea_2 = {
		inflation_reduction = 0.1
	}
	TAR_idea_3 = {
		interest = -1
	}
	TAR_idea_4 = {
		culture_conversion_cost = -0.25
	}
	TAR_idea_5 = {
		global_institution_spread = 0.1
	}
	TAR_idea_6 = {
		shock_damage = 0.10
	}
	TAR_idea_7 = {
		merchants = 1
	}
}

SAI_ideas = {
	start = {
		production_efficiency = 0.05
		build_time = -0.10
	}
	trigger = {
		tag = SAI
	}
	free = yes
	bonus = {
		land_forcelimit = 25
	}
	SAI_idea_1 = {
		advisor_pool = 1
	}
	SAI_idea_2 = {
		build_cost = -0.15
	}
	SAI_idea_3 = {
		trade_efficiency = 0.1
	}
	SAI_idea_4 = {
		discipline = 0.05
	}
	SAI_idea_5 = {
		land_attrition = -0.20
	}
	SAI_idea_6 = {
		war_exhaustion_cost = -0.10
	}
	SAI_idea_7 = {
		shock_damage_received = -0.10
	}
}

NAS_ideas = {
	start = {
		merchants = 1
		trade_range_modifier = 0.5
	}
	trigger = {
		tag = NAS
	}
	free = yes
	bonus = {
		all_power_cost = -0.025
	}
	NAS_idea_1 = {
		light_ship_cost = -0.1
	}
	NAS_idea_2 = {
		global_ship_trade_power = 0.25
	}
	NAS_idea_3 = {
		trade_efficiency = 0.1
	}
	NAS_idea_4 = {
		idea_cost = -0.1
	}
	NAS_idea_5 = {
		free_policy = 1
		possible_policy = 1
	}
	NAS_idea_6 = {
		global_ship_cost = -0.1
	}
	NAS_idea_7 = {
		merchants = 1
	}
}

XSR_ideas = {
    start = {
        cavalry_power = 0.10
        cavalry_cost = -0.10
    }
    trigger = {
        tag = XSR
    }
    free = yes
    bonus = {
		cavalry_flanking = 0.33
    }
    XSR_idea_1 = {
		colonists = 1
    }
    XSR_idea_2 = {
		province_warscore_cost = -0.05
    }
    XSR_idea_3 = {
		core_creation = -0.1   
    }
    XSR_idea_4 = {
		ae_impact = -0.1
    }
    XSR_idea_5 = {
        cavalry_shock = 1
    }
    XSR_idea_6 = {
        missionaries = 1
    }
    XSR_idea_7 = {
        global_missionary_strength = 0.02
    }
}

FAR_ideas = {
    start = {
        land_morale = 0.10
        core_creation = -0.1
    }
    trigger = {
        tag = FAR
    }
    free = yes
    bonus = {
        land_maintenance_modifier = -0.10
    }
    FAR_idea_1 = {
        infantry_shock = 1
    }
    FAR_idea_2 = {
        idea_cost = -0.1
    }
    FAR_idea_3 = {
        caravan_power = 0.33
    }
    FAR_idea_4 = {
        advisor_cost = -0.15
    }
    FAR_idea_5 = {
        shock_damage = 0.05
    }
    FAR_idea_6 = {
        local_development_cost = -0.1
    }
    FAR_idea_7 = {
        global_manpower_modifier = 0.10
    }
}

COG_ideas = {
    start = {
        trade_efficiency = 0.15
        global_prov_trade_power_modifier = 0.1
    }
    trigger = {
        tag = COG 
    }
    free = yes
    bonus = {
        global_autonomy = -0.05
    }
    COG_idea_1 = {
        artillery_fire = 1
    }
    COG_idea_2 = {
        technology_cost = -0.075
    }
    COG_idea_3 = {
        build_cost = -0.1
    }
    COG_idea_4 = {
        inflation_reduction = 0.1
    }
    COG_idea_5 = {
        development_cost = -0.15
    }
    COG_idea_6 = {
        shock_damage_received = -0.10
    }
    COG_idea_7 = {
        production_efficiency = 0.05
    }
}

MAR_ideas = {
    start = {
        shock_damage_received = -0.15
        infantry_shock = 1
    }
    trigger = {
        tag = MAR
    }
    free = yes
    bonus = {
        leader_land_shock = 1
    }
    MAR_idea_1 = {
        infantry_power = 0.10
    }
    MAR_idea_2 = {
        idea_cost = -0.10
    }
    MAR_idea_3 = {
        land_morale = 0.10
    }
    MAR_idea_4 = {
        monarch_military_power = 1
    }
    MAR_idea_5 = {
        global_unrest = -2
    }
    MAR_idea_6 = {
        discipline = 0.075
    }
    MAR_idea_7 = {
        all_estate_loyalty_equilibrium = 0.1
    }
}

ANT_ideas = {
    start = {
        land_morale = 0.10
        caravan_power = 0.33
    }
    trigger = {
        tag = ANT
    }
    free = yes
    bonus = {
        global_trade_power = 0.15
    }
    ANT_idea_1 = {
        artillery_fire = 1
    }
    ANT_idea_2 = {
        trade_efficiency = 0.15
    }
    ANT_idea_3 = {
        may_perform_slave_raid_on_same_religion = yes
    }
    ANT_idea_4 = {
        mercenary_discipline = 0.10
    }
    ANT_idea_5 = {
        global_prov_trade_power_modifier = 0.15
    }
    ANT_idea_6 = {
        artillery_power = 0.15
    }
    ANT_idea_7 = {
        backrow_artillery_damage = 0.15
    }
    }

KAH_ideas = {
    start = {
        global_spy_defence = 0.2
        mercenary_cost = -0.15
    }
    trigger = {
        tag = KAH
    }
    free = yes
    bonus = {
        advisor_cost = -0.20
    }
    KAH_idea_1 = {
        mercenary_discipline = 0.10
    }
    KAH_idea_2 = {
        diplomatic_reputation = 1
    }
    KAH_idea_3 = {
        global_tax_modifier = 0.15
    }
    KAH_idea_4 = {
        mercenary_manpower = 0.10
    }
    KAH_idea_5 = {
        inflation_reduction = 0.1
    }
    KAH_idea_6 = {
        siege_ability = 0.10
    }
    KAH_idea_7 = {
        army_tradition = 0.5
    } 
}

NER_ideas = {
    start = {
        tolerance_own = 1
        shock_damage = 0.1
    }
    trigger = {
        tag = NER
    }
    free = yes
    bonus = {
        global_autonomy = -0.05
    }
    NER_idea_1 = {
        core_creation = -0.10
    }
    NER_idea_2 = {
        years_of_nationalism = -10
    }
    NER_idea_3 = {
       global_unrest = -2
    }
    NER_idea_4 = {
        inflation_reduction = 0.1
    }
    NER_idea_5 = {
        development_cost = -0.15
    }
    NER_idea_6 = {
        build_cost = -0.1
    }
    NER_idea_7 = {
        production_efficiency = 0.1
    }
}

VEK_ideas = {
    start = {
        global_prov_trade_power_modifier = 0.1
        global_colonial_growth = 15
    }
    trigger = {
        tag = VEK
    }
    free = yes
    bonus = {
        shock_damage_received = -0.10
    }
    VEK_idea_1 = {
        native_assimilation = 0.25
    }
    VEK_idea_2 = {
        legitimacy = 1
    }
    VEK_idea_3 = {
        global_autonomy = -0.05
    }
    VEK_idea_4 = {
        colonists = 1
    }
    VEK_idea_5 = {
        advisor_pool = 1
        yearly_corruption = -0.1
    }
    VEK_idea_6 = {
        monarch_admin_power = 1
    }
    VEK_idea_7 = {
        fire_damage = 0.20
    }
}

IDO_ideas = {
    start = {
        trade_efficiency = 0.15
        may_perform_slave_raid_on_same_religion = yes
    }
    trigger = {
        tag = IDO
    }
    free = yes
    bonus = {
        global_trade_power = 0.2
    }
    IDO_idea_1 = {
        advisor_cost = -0.2
    }
    IDO_idea_2 = {
        naval_morale = 0.15
    }
    IDO_idea_3 = {
        caravan_power = 0.33
    }
    IDO_idea_4 = {
        merchants = 1
    }
    IDO_idea_5 = {
        development_cost = -0.1
    }
    IDO_idea_6 = {
        land_morale = 0.10
    }
    IDO_idea_7 = {
        movement_speed = 0.15
    }
}

SHI_ideas = {
    start={
        naval_morale = 0.1
        trade_efficiency = 0.15
    }
    trigger = {
        tag = SHI
    }
    free = yes
    bonus = {
        production_efficiency = 0.2
    }
    SHI_idea_1 = {
        global_trade_power = 0.1
    }
    SHI_idea_2 = {
        global_ship_cost = -0.1
    }
    SHI_idea_3 = {
        diplomatic_reputation = 1
    }
    SHI_idea_4 = {
        naval_forcelimit_modifier = 0.15
    }
    SHI_idea_5 = {
        development_cost = -0.15
    }
    SHI_idea_6 = {
        improve_relation_modifier = 0.3
    }
    SHI_idea_7 = {
        global_institution_spread = 0.1
    }
}

SAG_ideas = {
    start = {
        defensiveness = 0.33
        land_morale = 0.10
    }
    trigger = {
        tag = SAG
    }
    free = yes
    bonus = {
        global_manpower_modifier = 0.20
    }
    SAG_idea_1 = {
        army_tradition = 1
    }
    SAG_idea_2 = {
        idea_cost = -0.1
    }
    SAG_idea_3 = {
        infantry_fire = 1
    }
    SAG_idea_4 = {
        discipline = 0.05
    }
    SAG_idea_5 = {
        siege_ability = 0.15
    }
    SAG_idea_6 = {
        manpower_recovery_speed = 0.15
    }
    SAG_idea_7 = {
        country_military_power = 1
    }
}

MHJ_ideas = {
    start = {
        global_unrest = -2
        legitimacy = 1
    }
    trigger = {
        tag = MHJ
    }
    free = yes
    bonus = {
        shock_damage = 0.10
    }
    MHJ_idea_1 = {
        build_cost = -0.1
    }
    MHJ_idea_2 = {
        core_creation = -0.1
    }
    MHJ_idea_3 = {
        production_efficiency = 0.05
    }
    MHJ_idea_4 = {
        infantry_cost = -0.10
    }
    MHJ_idea_5 = {
        defensiveness = 0.20
    }
    MHJ_idea_6 = {
        movement_speed = 0.15
    }
    MHJ_idea_7 = {
        technology_cost = -0.1
    }
}

DID_ideas = {
    start = {
        cavalry_cost = -0.10
        cav_to_inf_ratio = 0.20
    }
    trigger = {
        tag = DID
    }
    free = yes
    bonus = {
        cavalry_fire = 1
    }
    DID_idea_1 = {
        army_tradition_from_battle = 0.1
    }
    DID_idea_2 = {
        cavalry_flanking = 0.33
    }
    DID_idea_3 = {
        cavalry_power = 0.20
    }
    DID_idea_4 = {
        movement_speed = 0.10
    }
    DID_idea_5 = {
        cavalry_shock = 1
    }
    DID_idea_6 = {
        land_attrition = -0.10
    }
    DID_idea_7 = {
        global_manpower_modifier = 0.15
    }
}

HEL_ideas = {
    start = {
		development_cost = -0.05
		diplomatic_reputation = 1
    }
    trigger = {
        tag = HEL
    }
    free = yes
    bonus = {
		navy_tradition = 2
    }
    HEL_idea_1 = {
		cb_on_overseas = yes
    }
    HEL_idea_2 = {
		stability_cost_modifier = -0.15
    }
    HEL_idea_3 = {
		idea_cost = -0.1
    }
    HEL_idea_4 = {
		trade_range_modifier = 0.75
    }
    HEL_idea_5 = {
		yearly_authority = 5
    }
    HEL_idea_6 = {
		transport_cost = -0.15
    }
    HEL_idea_7 = {
		naval_forcelimit_modifier = 0.1
    }
}

BLE_ideas = {
    start = {
		development_cost = -0.1
		diplomatic_reputation = 2
    }
    trigger = {
        tag = BLE
    }
    free = yes
    bonus = {
		global_spy_defence = 0.75
    }
    BLE_idea_1 = {
		cb_on_overseas = yes
    }
    BLE_idea_2 = {
		dip_tech_cost_modifier = -0.15
    }
    BLE_idea_3 = {
		idea_cost = -0.15
    }
    BLE_idea_4 = {
		trade_range_modifier = 0.75
    }
    BLE_idea_5 = {
		warscore_cost_vs_other_religion = -0.2
    }
    BLE_idea_6 = {
		global_unrest = -4
    }
    BLE_idea_7 = {
		colonists = 1
    }
}

CAM_ideas = {
	start = {
		tolerance_heretic = 2
		land_forcelimit_modifier = 0.25
	}
	trigger = {
        tag = CAM
	}
	free = yes
	bonus = {
		land_morale = 0.10
	}
	CAM_idea_1 = {
		no_religion_penalty = yes
	}
	CAM_idea_2 = {
		development_cost = -0.1
	}
	CAM_idea_3 = {
		build_cost = -0.1
	}
	CAM_idea_4 = {
		merc_maintenance_modifier = -0.20
	}
	CAM_idea_5 = {
		monthly_karma = 0.2
	}
	CAM_idea_6 = {
		advisor_pool = 1
	}
	CAM_idea_7 = {
		free_leader_pool = 1
	}
}

KUM_ideas = {
	start = {
		global_unrest = -3
		production_efficiency = 0.05
	}
	trigger = {
        tag = KUM
	}
	free = yes
	bonus = {
		move_capital_cost_modifier = -0.9
	}
	KUM_idea_1 = {
		discipline = 0.05
	}
	KUM_idea_2 = {
		prestige_decay = -0.01
		monthly_reform_progress_modifier = 1
	}
	KUM_idea_3 = {
		land_attrition = -0.20
	}
	KUM_idea_4 = {
		num_accepted_cultures = 2
	}
	KUM_idea_5 = {
		global_tax_modifier = 0.15
	}
	KUM_idea_6 = {
		advisor_pool = 3
	}
	KUM_idea_7 = {
		administrative_efficiency = 0.025
	}
}

HAR_ideas = {
	start = {
		embargo_efficiency = 0.50
		light_ship_cost = -0.15
	}
	trigger = {
        tag = HAR
	}
	free = yes
	bonus = {
		navy_tradition_decay = -0.05
	}
	HAR_idea_1 = {
		development_cost = -0.1
	}
	HAR_idea_2 = {
		interest = -2
	}
	HAR_idea_3 = {
		production_efficiency = 0.1
	}
	HAR_idea_4 = {
		merchants = 1
	}
	HAR_idea_5 = {
		mercantilism_cost = -0.15
	}
	HAR_idea_6 = {
		global_ship_trade_power = 0.25
	}
	HAR_idea_7 = {
		free_leader_pool = 1
	}
}

KIL_ideas = {
	start = {
		prestige = 2
		land_morale = 0.10
	}
	trigger = {
        tag = KIL
	}
	free = yes
	bonus = {
		mercenary_discipline = 0.1
	}
	KIL_idea_1 = {
		advisor_pool = 2
		female_advisor_chance = 0.75
	}
	KIL_idea_2 = {
		infantry_power = 0.1
	}
	KIL_idea_3 = {
		embracement_cost = -0.15
	}
	KIL_idea_4 = {
		movement_speed = 0.1
	}
	KIL_idea_5 = {
		culture_conversion_cost = -0.20
	}
	KIL_idea_6 = {
		trade_efficiency = 0.15
	}
	KIL_idea_7 = {
		infantry_shock = 1
	}
}

SER_ideas = {
	start = {
		may_perform_slave_raid = yes
		leader_naval_fire = 2
	}
	trigger = {
        tag = SER
	}
	free = yes
	bonus = {
		capture_ship_chance = 0.15
	}
	SER_idea_1 = {
		galley_power = 0.15
	}
	SER_idea_2 = {
		blockade_efficiency = 0.15
	}
	SER_idea_3 = {
		sunk_ship_morale_hit_recieved = -0.15
	}
	SER_idea_4 = {
		prestige_from_naval = 0.20
	}
	SER_idea_5 = {
		privateer_efficiency = 0.25
	}
	SER_idea_6 = {
		sailors_recovery_speed = 0.15
	}
	SER_idea_7 = {
		light_ship_power = 0.15
	}
}

IXT_ideas = {
	start = {
		land_attrition = -0.10
		global_unrest = -2	 			 	 	
	}
	trigger = {
        tag = IXT
	}
	free = yes
	bonus = {
		manpower_in_true_faith_provinces= 0.20
	}
	IXT_idea_1 = {
		production_efficiency = 0.15
	}
	IXT_idea_2 = {
		development_cost = -0.1
	}
	IXT_idea_3 = {
		global_institution_spread = 0.2
	}
	IXT_idea_4 = {
		monarch_lifespan = 0.1
	}
	IXT_idea_5 = {
		infantry_power = 0.10
	}
	IXT_idea_6 = {
		movement_speed = 0.15
	}
	IXT_idea_7 = {
		administrative_efficiency = 0.2
	}
}

IXA_ideas = {
	start = {
		global_prosperity_growth = 0.1
		diplomatic_reputation = 1
	}
	trigger = {
        tag = IXA
	}
	free = yes
	bonus = {
		prestige = 1
	}
	IXA_idea_1 = {
		technology_cost = -0.05
	}
	IXA_idea_2 = {
		land_morale = 0.10
	}
	IXA_idea_3 = {
		global_monthly_devastation = -0.1
	}
	IXA_idea_4 = {
		global_tax_modifier = 0.15
	}
	IXA_idea_5 = {
		diplomatic_upkeep = 1
	}
	IXA_idea_6 = {
		discipline = 0.05
	}
	IXA_idea_7 = {
		ae_impact = -0.1
	}
}

LRA_ideas = {
    start = {
		land_forcelimit_modifier = 0.10
		global_manpower_modifier = 0.10
    }
    trigger = {
        tag = LRA
    }
    free = yes
    bonus = {
        land_maintenance_modifier = -0.15
    }
    LRA_idea_1 = {
        infantry_shock = 1
    }
    LRA_idea_2 = {
        land_morale = 0.10
    }
    LRA_idea_3 = {
        ae_impact = -0.1
    }
    LRA_idea_4 = {
        global_tax_modifier = 0.15
    }
    LRA_idea_5 = {
        province_warscore_cost = -0.1
    }
    LRA_idea_6 = {
        land_attrition = -0.10
    }
    LRA_idea_7 = {
        available_province_loot = 0.20
    }
}

TAL_ideas = {
    start = {
		navy_tradition = 1
        may_perform_slave_raid_on_same_religion = yes
    }
    trigger = {
        tag = TAL
    }
    free = yes
    bonus = {
        naval_forcelimit_modifier = 0.2
    }
    TAL_idea_1 = {
        leader_naval_fire = 1
    }
    TAL_idea_2 = {
        leader_naval_shock = 1
    }
    TAL_idea_3 = {
        leader_naval_manuever = 1
    }
    TAL_idea_4 = {
        flagship_cost = -0.2
    }
    TAL_idea_5 = {
        global_naval_barrage_cost = -0.5
    }
    TAL_idea_6 = {
        prestige_from_naval = 0.2
    }
    TAL_idea_7 = {
        mercenary_cost = -0.10
    }
}

FRW_ideas = {
    start = {
		defensiveness = 0.10     
		land_attrition = -0.10
    }
    trigger = {
        tag = FRW
    }
    free = yes
    bonus = {
        reinforce_speed = 0.15
    }
    FRW_idea_1 = {
        fort_maintenance_modifier = -0.10
    }
    FRW_idea_2 = {
        loot_amount = 0.10
    }
    FRW_idea_3 = {
        available_province_loot = 0.10
    }
    FRW_idea_4 = {
        prestige_from_land = 0.10
    }
    FRW_idea_5 = {
        leader_cost = -0.15
    }
    FRW_idea_6 = {
        war_exhaustion = -0.10
    }
    FRW_idea_7 = {
        recover_army_morale_speed = 0.15
    }
}

FRH_ideas = {
    start = {
		defensiveness = 0.10     
		land_attrition = -0.10
    }
    trigger = {
        tag = FRH
    }
    free = yes
    bonus = {
        reinforce_speed = 0.15
    }
    FRH_idea_1 = {
        fort_maintenance_modifier = -0.10
    }
    FRH_idea_2 = {
        loot_amount = 0.10
    }
    FRH_idea_3 = {
        available_province_loot = 0.10
    }
    FRH_idea_4 = {
        prestige_from_land = 0.10
    }
    FRH_idea_5 = {
        leader_cost = -0.15
    }
    FRH_idea_6 = {
        war_exhaustion = -0.10
    }
    FRH_idea_7 = {
        recover_army_morale_speed = 0.15
    }
}

GHU_ideas = {
    start = {
        land_forcelimit_modifier = 0.10
		land_morale = 0.15
    }
    trigger = {
        tag = GHU
    }
    free = yes
    bonus = {
        global_manpower_modifier = 0.15
    }
    GHU_idea_1 = {
		defensiveness = 0.33
    }
    GHU_idea_2 = {
        discipline = 0.05
    }
    GHU_idea_3 = {
        global_tax_modifier = 0.10
    }
    GHU_idea_4 = {
        shock_damage = 0.10
    }
    GHU_idea_5 = {
        prestige_from_land = 0.25
    }
    GHU_idea_6 = {
        global_unrest = -2
    }
    GHU_idea_7 = {
        global_autonomy = -0.05
    }
}

GRO_ideas = {
    start = {
        global_prov_trade_power_modifier = 0.10
        trade_efficiency = 0.10
    }
    trigger = {
        tag = GRO
    }
    free = yes
    bonus = {
        global_trade_goods_size_modifier = 0.1
    }
    GRO_idea_1 = {
        infantry_fire = 1
    }
    GRO_idea_2 = {
        global_ship_trade_power = 0.15
    }
    GRO_idea_3 = {
        leader_land_fire = 1
    }
    GRO_idea_4 = {
        ship_power_propagation = 0.1
    }
    GRO_idea_5 = {
        trade_range_modifier = 0.25
    }
    GRO_idea_6 = {
        global_trade_power = 0.10
    }
    GRO_idea_7 = {
        caravan_power = 0.33
    }
}

LYS_ideas = {
    start = {
        siege_ability = 0.15
		infantry_power = 0.10
    }
    trigger = {
        tag = LYS
    }
    free = yes
    bonus = {
        years_of_nationalism = -5
    }
    LYS_idea_1 = {
        recover_army_morale_speed = 0.15
    }
    LYS_idea_2 = {
        infantry_shock = 1
    }
    LYS_idea_3 = {
        land_maintenance_modifier = -0.10
    }
    LYS_idea_4 = {
        ae_impact = -0.15
    }
    LYS_idea_5 = {
        country_military_power = 1
    }
    LYS_idea_6 = {
        prestige = 1
    }
    LYS_idea_7 = {
        global_unrest = -2
    }
}

FOU_ideas = {
    start = {
        movement_speed = 0.10
	shock_damage_received = -0.10
    }
    trigger = {
        tag = FOU
    }
    free = yes
    bonus = {
        loot_amount = 0.30
    }
    FOU_idea_1 = {
        war_exhaustion = -0.10
    }
    FOU_idea_2 = {
        global_institution_spread = 0.2
    }
    FOU_idea_3 = {
        improve_relation_modifier = 0.25
    }
    FOU_idea_4 = {
        advisor_pool = 1
    }
    FOU_idea_5 = {
        advisor_cost = -0.20
    }
    FOU_idea_6 = {
        production_efficiency = 0.05
    }
    FOU_idea_7 = {
        reinforce_speed = 0.10
    }
}

MAA_ideas = {
    start = {
		state_maintenance_modifier = -0.15
		galley_cost = -0.1
    }
    trigger = {
        tag = MAA
    }
    free = yes
    bonus = {
        naval_forcelimit_modifier = 0.2
    }
    MAA_idea_1 = {
        global_spy_defence = 0.20
    }
    MAA_idea_2 = {
        merc_maintenance_modifier = -0.20
    }
    MAA_idea_3 = {
        navy_tradition = 1
    }
    MAA_idea_4 = {
        mercenary_discipline = 0.10
    }
    MAA_idea_5 = {
        diplomatic_reputation = 2
    }
    MAA_idea_6 = {
        galley_power = 0.1
    }
    MAA_idea_7 = {
        naval_tradition_from_trade = 0.1
    }
}

ICA_ideas = {
    start = {
		religious_unity = 0.25
		global_missionary_strength = 0.04
    }
    trigger = {
        tag = ICA
    }
    free = yes
    bonus = {
        shock_damage = 0.15
    }
    ICA_idea_1 = {
		missionaries = 1
    }
    ICA_idea_2 = {
        land_morale = 0.15
    }
    ICA_idea_3 = {
        global_manpower_modifier = 0.15
    }
    ICA_idea_4 = {
        discipline = 0.1
    }
    ICA_idea_5 = {
        global_unrest = -3
    }
    ICA_idea_6 = {
        global_tax_modifier = 0.25
    }
    ICA_idea_7 = {
        core_creation = -0.1
    }
}

NAV_ideas = {
    start = {
		diplomatic_upkeep = 1
		land_morale = 0.10
    }
    trigger = {
        tag = NAV
    }
    free = yes
    bonus = {
        global_prosperity_growth = 0.1
    }
    NAV_idea_1 = {
		same_culture_advisor_cost = -0.15
    }
    NAV_idea_2 = {
        global_unrest = -2
    }
    NAV_idea_3 = {
        range = 0.25
		trade_range_modifier = 0.5
    }
    NAV_idea_4 = {
        global_supply_limit_modifier = 0.10
    }
    NAV_idea_5 = {
        global_manpower_modifier = 0.15
    }
    NAV_idea_6 = {
        development_cost = -0.15
    }
    NAV_idea_7 = {
        global_institution_spread = 0.3
		idea_cost = -0.15
    }
}

KIN_ideas = {
    start = {
		tolerance_own = 2
		diplomatic_reputation = 2
    }
    trigger = {
        tag = KIN
    }
    free = yes
    bonus = {
        shock_damage_received = -0.15
    }
    KIN_idea_1 = {
		diplomats = 1
    }
    KIN_idea_2 = {
        technology_cost = -0.1
    }
    KIN_idea_3 = {
        diplomatic_upkeep = 1
    }
    KIN_idea_4 = {
        idea_cost = -0.1
    }
    KIN_idea_5 = {
        warscore_cost_vs_other_religion = -0.4
    }
    KIN_idea_6 = {
        discipline = 0.05
    }
    KIN_idea_7 = {
        promote_culture_cost = -1
    }
}

HIR_ideas = {
    start = {
		galley_cost = -0.1
		leader_naval_manuever = 1
    }
    trigger = {
        tag = HIR
    }
    free = yes
    bonus = {
        naval_morale = 0.15
    }
    HIR_idea_1 = {
		galley_power = 0.15
    }
    HIR_idea_2 = {
        infantry_fire = 1
    }
    HIR_idea_3 = {
        recover_army_morale_speed = 0.25
    }
    HIR_idea_4 = {
        stability_cost_modifier = -0.1
    }
    HIR_idea_5 = {
        allowed_marine_fraction = 0.25
    }
    HIR_idea_6 = {
        naval_maintenance_modifier = -0.15
    }
    HIR_idea_7 = {
        capture_ship_chance = 0.33
    }
}

WUJ_ideas = {
    start = {
		infantry_power = 0.10
		build_cost = -0.1
    }
    trigger = {
		OR = {
			tag = WUJ
			primary_culture = wuju
		}
    }
    free = yes
    bonus = {
        leader_land_shock = 1
    }
    WUJ_idea_1 = {
		discipline = 0.05
    }
    WUJ_idea_2 = {
        shock_damage = 0.10
    }
    WUJ_idea_3 = {
        army_tradition_decay = -0.1
    }
    WUJ_idea_4 = {
        production_efficiency = 0.1
    }
    WUJ_idea_5 = {
        infantry_shock = 2
    }
    WUJ_idea_6 = {
        movement_speed = 0.10
    }
    WUJ_idea_7 = {
        land_morale = 0.10
    }
}

ION_ideas = {
    start = {
		diplomatic_upkeep = 2
		land_morale = 0.15
    }
    trigger = {
        tag = ION
    }
    free = yes
    bonus = {
        global_prosperity_growth = 0.1
    }
    ION_idea_1 = {
		same_culture_advisor_cost = -0.2
    }
    ION_idea_2 = {
        global_unrest = -3
    }
    ION_idea_3 = {
		infantry_shock = 2
		shock_damage = 0.10
    }
    ION_idea_4 = {
        global_manpower_modifier = 0.2
    }
    ION_idea_5 = {
        defensiveness = 0.2
    }
    ION_idea_6 = {
        development_cost = -0.2
    }
    ION_idea_7 = {
        land_maintenance_modifier = -0.2
    }
}

DEL_ideas = {
    start = {
		global_spy_defence = 0.2
		land_morale = 0.1
        core_creation = 0.1
    }
    trigger = {
        tag = DEL
    }
    free = yes
    bonus = {
        global_prosperity_growth = 0.15
    }
    DEL_idea_1 = {
		culture_conversion_cost = -0.25
    }
    DEL_idea_2 = {
        years_of_nationalism = -5
    }
    DEL_idea_3 = {
		global_garrison_growth = 0.10
        global_defender_dice_roll_bonus = 1
    }
    DEL_idea_4 = {
        global_manpower_modifier = 0.2
    }
    DEL_idea_5 = {
        state_maintenance_modifier = -0.25
    }
    DEL_idea_6 = {
        development_cost = -0.2
    }
    DEL_idea_7 = {
        land_maintenance_modifier = -0.2
    }
}

SEP_ideas = {
    start = {
		stability_cost_modifier = -0.15
    }
    trigger = {
        tag = SEP
    }
    free = yes
    bonus = {
        global_prosperity_growth = 0.10
    }
    SEP_idea_1 = {
		privateer_efficiency = 0.15
        ship_power_propagation = 0.10
    }
    SEP_idea_2 = {
        morale_of_armies = 0.10
        land_forcelimit_modifier = 0.10
    }
    SEP_idea_3 = {
		diplomatic_reputation = 1
        improve_relation_modifier = 0.10
    }
    SEP_idea_4 = {
        war_exhaustion = -0.10
        reserves_organisation = 0.20
    }
    SEP_idea_5 = {
        hostile_attrition = 1
    }
    SEP_idea_6 = {
        development_cost = -0.15
    }
    SEP_idea_7 = {
        global_unrest = -2
    }
}

CAD_ideas = {
    start = {
		core_creation = 0.15
        stability_cost_modifier = -0.1
        improve_relation_modifier = -0.20
    }
    trigger = {
        tag = CAD
    }
    free = yes
    bonus = {
        build_cost = -0.10
    }
    CAD_idea_1 = {
		state_governing_cost = -0.20
    }
    CAD_idea_2 = {
        global_trade_power = 0.10
    }
    CAD_idea_3 = {
		leaders = 2
        land_maintenance_modifier = -0.10
    }
    CAD_idea_4 = {
        technology_cost = -0.10
    }
    CAD_idea_5 = {
        fort_maintenance_modifier = -0.10
        drill_gain_modifier = 0.10
    }
    CAD_idea_6 = {
        prestige_decay = -0.02
        yearly_corruption = -0.1
    }
    CAD_idea_7 = {
        global_autonomy = -0.05
        liberty_desire = -15
        num_accepted_cultures = 1
    }
}

BRY_ideas = {
    start = {
		production_efficiency = 0.10
        center_of_trade_upgrade_cost = -0.30
        global_ship_trade_power = 0.2
        embargo_efficiency = -0.25
    }
    trigger = {
        tag = BRY
    }
    free = yes
    bonus = {
        merchants = 1
        development_cost = -0.05
    }
    BRY_idea_1 = {
		global_institution_spread = 0.2
    }
    BRY_idea_2 = {
        global_trade_power = 0.10
        monthly_splendor = 0.25
    }
    BRY_idea_3 = {
		reform_progress_growth = 0.1
        yearly_innovativeness = 0.25
    }
    BRY_idea_4 = {
        landing_penalty = -2
        sea_repair = yes
        ship_durability = 0.1
    }
    BRY_idea_5 = {
        available_province_loot = 0.20
        prestige_from_land = 0.20
    }
    BRY_idea_6 = {
        min_autonomy_in_territories = 0.1
        num_accepted_cultures = 1
    }
    BRY_idea_7 = {
        tolerance_own = 1
        relation_with_heathens = 10
    }
}

THE_ideas = {
    start = {
		envoy_travel_time = .35
        idea_cost = -0.1
        stability_cost_to_declare_war = 1
    }
    trigger = {
        tag = THE
    }
    free = yes
    bonus = {
        monthly_reform_progress = 0.5
        global_unrest = -2
    }
    THE_idea_1 = {
		global_defender_dice_roll_bonus = 1
        hostile_attrition = 1
        rival_border_fort_maintenance = -0.40
    }
    THE_idea_2 = {
        war_exhaustion = -0.10
        war_taxes_cost_modifier = -.5
    }
    THE_idea_3 = {
		reform_progress_growth = 0.1
        navy_tradition_decay = -0.01
        army_tradition_decay = -0.01
        drill_decay_modifier = -0.15
    }   
    THE_idea_4 = {  
        defensiveness = 0.25
        monarch_military_power = 1
        enemy_core_creation = 0.2
    }
    THE_idea_5 = {
        legitimacy = 1
        republican_tradition = 0.5
        innovativeness_gain = 0.5
    }
    THE_idea_6 = {
        state_maintenance_modifier = -0.25
        mercantilism_cost = -0.2
    }
    THE_idea_7 = {
        same_religion_advisor_cost = -0.2
        same_culture_advisor_cost = -0.2
        advisor_cost = -0.2
    }
}

ELD_ideas = {
    start = {
		envoy_travel_time = -0.2
        diplomatic_reputation = 1
        unjustified_demands = .1
    }
    trigger = {
        tag = ELD
    }
    free = yes
    bonus = {
        monarch_diplomatic_power = 2
    }
    ELD_idea_1 = {
		diplomats = 1
        dip_advisor_cost = -0.3
    }
    ELD_idea_2 = {
        ae_impact = -0.2
    }
    ELD_idea_3 = {
		centralize_state_cost = -0.25
        global_prosperity_growth = 0.1
    }   
    ELD_idea_4 = {  
        state_maintenance_modifier = -0.25
        global_institution_spread = 0.1
    }
    ELD_idea_5 = {
        fire_damage = 0.15
    }
    ELD_idea_6 = {
        global_autonomy = -0.05
        culture_conversion_time = -0.1
    }
    ELD_idea_7 = {
        land_attrition = -0.10
    }
}

SLS_ideas = {
    start = {
		global_spy_defence = 0.2
        diplomatic_reputation = -1
    }
    trigger = {
        tag = SLS
    }
    free = yes
    bonus = {
        diplomats = 1
        dip_advisor_cost = -0.3
    }
    SLS_idea_1 = {
		manpower_in_accepted_culture_provinces = 0.10
        manpower_in_true_faith_provinces= 0.10
    }
    SLS_idea_2 = {
        light_ship_cost = -0.2
        naval_morale = 0.1
    }
    SLS_idea_3 = {
		production_efficiency = 0.05
        build_cost = -0.1
    }   
    SLS_idea_4 = {  
        embracement_cost = -0.30
    }
    SLS_idea_5 = {
        core_creation = -0.2
    }
    SLS_idea_6 = {
        yearly_innovativeness = 0.25
    }
    SLS_idea_7 = {
        legitimacy = 1
        monarch_admin_power = 1
    }
}

VAA_ideas = {
    start = {
		accept_vassalization_reasons = 10
        religious_unity = 0.2
    }
    trigger = {
        tag = VAA
    }
    free = yes
    bonus = {
        diplomats = 1
        dip_advisor_cost = -0.3
    }
    VAA_idea_1 = {
		attack_bonus_in_capital_terrain = 1
    }
    VAA_idea_2 = {
        defensiveness = 0.10
        discipline = 0.01
    }
    VAA_idea_3 = {
		max_admiral_maneuver = 3
        max_admiral_siege = 1
    }   
    VAA_idea_4 = {  
        province_warscore_cost = -0.2
        rival_change_cost = -0.9
    }
    VAA_idea_5 = {
        production_efficiency = 0.05
        free_concentrate_development = yes
    }
    VAA_idea_6 = {
        build_time = -0.25
    }
    VAA_idea_7 = {
        tolerance_own = 1
        tolerance_heretic = 1
        tolerance_heathen = 1
    }
}

ERI_ideas = {
    start = {
		admiral_cost = -0.5
    }
    trigger = {
        tag = ERI
    }
    free = yes
    bonus = {
        naval_maintenance_flagship_modifier = -.90
        global_sailors_modifier = 0.25
    }
    ERI_idea_1 = {
		embargo_efficiency = 0.3
        global_institution_spread = 0.2
        may_perform_slave_raid = yes
        may_perform_slave_raid_on_same_religion = yes
    }
    ERI_idea_2 = {
        landing_penalty = -1
    }
    ERI_idea_3 = {
		governing_cost = -0.1
        monthly_reform_progress_modifier = 0.15
    }   
    ERI_idea_4 = {  
        naval_forcelimit_modifier = 0.20
    }
    ERI_idea_5 = {
        global_ship_trade_power = 0.2
    }
    ERI_idea_6 = {
        navy_tradition_decay = -0.02
    }
    ERI_idea_7 = {
        prestige_decay = -0.02
        possible_dip_policy = 1
    }
}

ARG_ideas = {
    start = {
		garrison_damage = 0.5
        garrison_size = 0.2
    }
    trigger = {
        tag = ARG
    }
    free = yes
    bonus = {
        global_defender_dice_roll_bonus = 1
        global_garrison_growth = 0.10
    }
    ARG_idea_1 = {
		land_forcelimit_modifier = 0.15
    }
    ARG_idea_2 = {
        merchants = 1
        trade_efficiency = 0.1
    }
    ARG_idea_3 = {
		idea_cost = -0.1
        global_institution_spread = 0.1
    }   
    ARG_idea_4 = {  
        global_rebel_suppression_efficiency = -0.3
        global_autonomy = -0.05
    }
    ARG_idea_5 = {
        land_attrition = -0.10
        hostile_attrition = 0.5
    }
    ARG_idea_6 = {
        naval_maintenance_modifier = -0.1
        naval_morale = 0.3
    }
    ARG_idea_7 = {
        global_spy_defence = 0.1
        spy_offence = 0.1
        spy_action_cost_modifier = -0.2
    }
}

ARG_ideas = {
    start = {
		garrison_damage = 0.5
        garrison_size = 0.2
    }
    trigger = {
        tag = ARG
    }
    free = yes
    bonus = {
        global_defender_dice_roll_bonus = 1
        global_garrison_growth = 0.10
    }
    ARG_idea_1 = {
		land_forcelimit_modifier = 0.15
    }
    ARG_idea_2 = {
        merchants = 1
        trade_efficiency = 0.1
    }
    ARG_idea_3 = {
		idea_cost = -0.1
        global_institution_spread = 0.1
    }   
    ARG_idea_4 = {  
        global_rebel_suppression_efficiency = -0.3
        global_autonomy = -0.05
    }
    ARG_idea_5 = {
        land_attrition = -0.10
        hostile_attrition = 0.5
    }
    ARG_idea_6 = {
        naval_maintenance_modifier = -0.1
        naval_morale = 0.3
    }
    ARG_idea_7 = {
        global_spy_defence = 0.1
        spy_offence = 0.1
        spy_action_cost_modifier = -0.2
    }
}

DAW_ideas = {
    start = {
		land_attrition = -0.10
        land_forcelimit_modifier = 0.10
    }
    trigger = {
        tag = DAW
    }
    free = yes
    bonus = {
        loot_amount = 0.10
    }
    DAW_idea_1 = {
		diplomats = 1
    }
    DAW_idea_2 = {
        development_cost_modifier = -0.05
    }
    DAW_idea_3 = {
		mercantilism_cost = -0.1
        governing_cost = -0.1
    }   
    DAW_idea_4 = {  
        global_rebel_suppression_efficiency = -0.3
        global_autonomy = -0.05
    }
    DAW_idea_5 = {
        harsh_treatment_cost = -0.2
        global_autonomy = -0.05
    }
    DAW_idea_6 = {
        prestige_from_land = 0.10
    }
    DAW_idea_7 = {
        naval_morale = 0.1
    }
}

VAS_ideas = {
    start = {
		military_tactics = 0.25
    }
    trigger = {
        tag = VAS
    }
    free = yes
    bonus = {
        loot_amount = 0.15
        raze_power_gain = 0.10
    }
    VAS_idea_1 = {
		war_exhaustion = -0.10
    }
    VAS_idea_2 = {
        diplomatic_upkeep = 2
    }
    VAS_idea_3 = {
		global_naval_engagement = 4
    }   
    VAS_idea_4 = {  
        merchants = 1
    }
    VAS_idea_5 = {
        shock_damage_received = -0.10
    }
    VAS_idea_6 = {
        institution_spread_from_true_faith = 0.1
        innovativeness_gain = 0.5
    }
    VAS_idea_7 = {
        years_of_nationalism = -5
        min_autonomy_in_territories = 0.1
    }
}

AST_ideas = {
    start = {
		idea_cost = -0.1
    }
    trigger = {
        tag = AST
    }
    free = yes
    bonus = {
        interest = -1
    }
    AST_idea_1 = {
		war_exhaustion = -0.10
    }
    AST_idea_2 = {
        global_missionary_strength = 0.02
    }
    AST_idea_3 = {
		build_time = -0.25
    }   
    AST_idea_4 = {  
        ae_impact = -0.2
    }
    AST_idea_5 = {
        global_spy_defence = 0.1
    }
    AST_idea_6 = {
        global_ship_cost = -0.1
    }
    AST_idea_7 = {
        morale_damage = 0.030
    }
}

EPR_ideas = {
    start = {
		tolerance_own = 2.5
		movement_speed_onto_off_boat_modifier = -0.4
    }
    trigger = {
        tag = EPR
    }
    free = yes
    bonus = {
        movement_speed = 0.10
    }
    EPR_idea_1 = {
		development_cost_in_primary_culture = -0.15
    }
    EPR_idea_2 = {
        missionaries = 1
    }
    EPR_idea_3 = {
		idea_cost = -0.1
    }   
    EPR_idea_4 = {  
        leader_naval_fire = 1
    }
    EPR_idea_5 = {
        caravan_power = 0.2
    }
    EPR_idea_6 = {
        global_ship_cost = -0.1
    }
    EPR_idea_7 = {
        global_allowed_num_of_buildings = 1
    }
}

HEV_ideas = {
    start = {
		manpower_in_own_culture_provinces = 0.10
    }
    trigger = {
        tag = HEV
    }
    free = yes
    bonus = {
        no_cost_for_reinforcing = yes
    }
    HEV_idea_1 = {
		leader_land_manuever = 1
    }
    HEV_idea_2 = {
        army_tradition = 1
    }
    HEV_idea_3 = {
		artillery_barrage_cost = -0.25
    }   
    HEV_idea_4 = {  
        years_of_nationalism = -5
    }
    HEV_idea_5 = {
        caravan_power = 0.2
    }
    HEV_idea_6 = {
        war_taxes_cost_modifier = -0.50
    }
    HEV_idea_7 = {
        merc_leader_army_tradition = 0.5
    }
}

HEV_ideas = {
    start = {
		manpower_in_own_culture_provinces = 0.10
    }
    trigger = {
        tag = HEV
    }
    free = yes
    bonus = {
        no_cost_for_reinforcing = yes
    }
    HEV_idea_1 = {
		leader_land_manuever = 1
    }
    HEV_idea_2 = {
        army_tradition = 1
    }
    HEV_idea_3 = {
		artillery_barrage_cost = -0.25
    }   
    HEV_idea_4 = {  
        years_of_nationalism = -5
    }
    HEV_idea_5 = {
        caravan_power = 0.2
    }
    HEV_idea_6 = {
        war_taxes_cost_modifier = -0.50
    }
    HEV_idea_7 = {
        merc_leader_army_tradition = 0.5
    }
}