province;red;green;blue;x;x
1;0;255;0;1;wasteland
2;0;0;255;2;wasteland
3;68;131;209;3;wasteland
4;56;83;117;4;lake
5;248;227;214;5;land (1095 px)
6;222;154;250;6;land (1051 px)
7;129;242;195;7;land (964 px)
8;195;103;207;8;land (940 px)
9;221;212;208;9;land (926 px)
10;132;193;224;10;land (919 px)
11;219;132;177;11;land (899 px)
12;136;206;239;12;land (880 px)
13;72;232;226;13;land (845 px)
14;215;144;225;14;land (845 px)
15;134;194;234;15;land (839 px)
16;242;194;234;16;land (834 px)
17;226;232;192;17;land (833 px)
18;225;174;191;18;land (827 px)
19;195;192;227;19;land (826 px)
20;209;253;40;20;land (821 px)
21;194;198;132;21;land (808 px)
22;250;112;249;22;land (808 px)
23;173;198;190;23;land (805 px)
24;237;141;162;24;land (805 px)
25;250;223;176;25;land (799 px)
26;251;210;237;26;land (797 px)
27;226;189;227;27;land (796 px)
28;228;203;224;28;land (794 px)
29;148;251;125;29;land (790 px)
30;164;243;105;30;land (789 px)
31;209;140;153;31;land (787 px)
32;250;249;150;32;land (782 px)
33;251;254;44;33;land (779 px)
34;191;249;192;34;land (778 px)
35;192;151;225;35;land (778 px)
36;234;97;196;36;land (776 px)
37;140;251;177;37;land (775 px)
38;180;223;174;38;land (774 px)
39;247;137;236;39;land (774 px)
40;225;186;176;40;land (771 px)
41;156;161;186;41;land (769 px)
42;90;204;219;42;land (769 px)
43;192;241;120;43;land (767 px)
44;235;97;233;44;land (764 px)
45;204;176;140;45;land (763 px)
46;233;249;67;46;land (762 px)
47;224;165;166;47;land (759 px)
48;240;126;166;48;land (759 px)
49;223;79;223;49;land (757 px)
50;243;13;254;50;land (754 px)
51;125;218;158;51;land (751 px)
52;254;135;160;52;land (750 px)
53;216;227;143;53;land (746 px)
54;243;237;166;54;land (744 px)
55;143;248;232;55;land (743 px)
56;152;143;212;56;land (741 px)
57;177;130;211;57;land (738 px)
58;246;154;254;58;land (736 px)
59;141;233;250;59;land (736 px)
60;84;247;206;60;land (733 px)
61;233;195;214;61;land (733 px)
62;238;253;254;62;land (728 px)
63;211;234;238;63;land (728 px)
64;222;158;212;64;land (725 px)
65;183;253;73;65;land (724 px)
66;214;85;250;66;land (722 px)
67;163;224;220;67;land (721 px)
68;52;222;252;68;land (721 px)
69;224;140;187;69;land (721 px)
70;229;65;212;70;land (720 px)
71;241;203;161;71;land (719 px)
72;137;163;240;72;land (718 px)
73;235;49;252;73;land (718 px)
74;46;174;40;74;land (717 px)
75;232;122;209;75;land (717 px)
76;130;216;164;76;land (717 px)
77;159;173;13;77;land (717 px)
78;143;248;223;78;land (714 px)
79;157;154;238;79;land (711 px)
80;173;211;119;80;land (710 px)
81;236;166;134;81;land (708 px)
82;210;164;223;82;land (707 px)
83;169;141;252;83;land (707 px)
84;127;251;179;84;land (707 px)
85;74;244;206;85;land (706 px)
86;187;231;193;86;land (706 px)
87;128;217;220;87;land (704 px)
88;162;175;217;88;land (704 px)
89;112;228;175;89;land (699 px)
90;159;233;202;90;land (695 px)
91;176;241;243;91;land (695 px)
92;176;113;222;92;land (693 px)
93;90;248;184;93;land (693 px)
94;137;145;251;94;land (693 px)
95;242;219;222;95;land (692 px)
96;215;175;230;96;land (692 px)
97;181;110;219;97;land (691 px)
98;170;152;245;98;land (691 px)
99;220;182;104;99;land (688 px)
100;171;139;216;100;land (688 px)
101;207;236;146;101;land (687 px)
102;234;179;211;102;land (687 px)
103;171;247;83;103;land (686 px)
104;174;222;173;104;land (683 px)
105;115;234;199;105;land (682 px)
106;83;192;239;106;land (682 px)
107;120;200;181;107;land (681 px)
108;211;193;162;108;land (681 px)
109;37;23;200;109;land (681 px)
110;246;175;237;110;land (681 px)
111;161;146;224;111;land (678 px)
112;161;207;164;112;land (678 px)
113;209;216;215;113;land (678 px)
114;247;235;97;114;land (676 px)
115;248;201;240;115;land (675 px)
116;217;216;225;116;land (674 px)
117;237;135;199;117;land (673 px)
118;161;136;249;118;land (673 px)
119;244;135;176;119;land (671 px)
120;114;205;225;120;land (670 px)
121;215;236;208;121;land (669 px)
122;200;205;99;122;land (668 px)
123;215;89;223;123;land (668 px)
124;230;218;231;124;land (667 px)
125;203;248;188;125;land (666 px)
126;169;212;172;126;land (666 px)
127;166;107;240;127;land (665 px)
128;178;140;192;128;land (664 px)
129;224;164;236;129;land (663 px)
130;132;221;147;130;land (662 px)
131;130;225;253;131;land (660 px)
132;247;137;226;132;land (660 px)
133;153;158;226;133;land (660 px)
134;150;154;227;134;land (659 px)
135;235;179;136;135;land (658 px)
136;219;231;222;136;land (658 px)
137;223;122;167;137;land (656 px)
138;241;67;206;138;land (655 px)
139;253;139;184;139;land (655 px)
140;180;107;235;140;land (654 px)
141;186;243;183;141;land (654 px)
142;177;245;236;142;land (654 px)
143;240;245;184;143;land (653 px)
144;249;232;166;144;land (652 px)
145;252;172;212;145;land (652 px)
146;95;242;186;146;land (651 px)
147;208;242;117;147;land (651 px)
148;250;208;66;148;land (650 px)
149;208;103;192;149;land (650 px)
150;162;181;204;150;land (649 px)
151;202;146;247;151;land (649 px)
152;94;249;171;152;land (649 px)
153;77;231;195;153;land (646 px)
154;169;156;221;154;land (646 px)
155;197;245;85;155;land (646 px)
156;242;139;184;156;land (646 px)
157;87;215;254;157;land (645 px)
158;213;126;232;158;land (644 px)
159;247;203;171;159;land (643 px)
160;152;228;234;160;land (641 px)
161;83;237;222;161;land (641 px)
162;240;225;70;162;land (640 px)
163;244;188;236;163;land (640 px)
164;211;203;107;164;land (637 px)
165;237;141;249;165;land (636 px)
166;165;167;244;166;land (636 px)
167;124;207;220;167;land (636 px)
168;192;110;198;168;land (635 px)
169;203;92;207;169;land (635 px)
170;246;133;139;170;land (634 px)
171;183;230;199;171;land (634 px)
172;226;169;222;172;land (634 px)
173;210;119;211;173;land (634 px)
174;192;252;130;174;land (633 px)
175;144;246;228;175;land (631 px)
176;239;239;121;176;land (630 px)
177;186;126;243;177;land (630 px)
178;205;172;160;178;land (630 px)
179;134;250;139;179;land (629 px)
180;230;177;173;180;land (629 px)
181;245;216;253;181;land (629 px)
182;175;230;248;182;land (627 px)
183;109;222;250;183;land (626 px)
184;233;186;243;184;land (626 px)
185;230;184;237;185;land (626 px)
186;199;126;254;186;land (625 px)
187;87;198;217;187;land (624 px)
188;236;214;115;188;land (623 px)
189;109;224;172;189;land (623 px)
190;107;236;187;190;land (623 px)
191;134;211;193;191;land (622 px)
192;238;221;80;192;land (622 px)
193;138;251;112;193;land (621 px)
194;161;135;212;194;land (621 px)
195;247;244;119;195;land (620 px)
196;92;180;234;196;land (619 px)
197;223;109;215;197;land (618 px)
198;208;146;224;198;land (618 px)
199;220;162;162;199;land (617 px)
200;116;244;250;200;land (616 px)
201;194;179;215;201;land (615 px)
202;184;159;254;202;land (615 px)
203;210;133;193;203;land (614 px)
204;208;140;207;204;land (614 px)
205;141;202;217;205;land (613 px)
206;186;105;244;206;land (613 px)
207;178;170;235;207;land (613 px)
208;231;227;143;208;land (613 px)
209;218;56;235;209;land (612 px)
210;240;166;238;210;land (612 px)
211;157;223;179;211;land (611 px)
212;168;159;192;212;land (611 px)
213;234;92;203;213;land (610 px)
214;145;189;226;214;land (610 px)
215;140;201;247;215;land (609 px)
216;148;125;250;216;land (608 px)
217;227;103;247;217;land (608 px)
218;254;215;148;218;land (608 px)
219;217;75;213;219;land (607 px)
220;124;251;197;220;land (607 px)
221;215;221;115;221;land (607 px)
222;143;202;245;222;land (606 px)
223;198;183;234;223;land (606 px)
224;204;235;77;224;land (606 px)
225;227;104;172;225;land (604 px)
226;194;151;184;226;land (604 px)
227;197;214;205;227;land (604 px)
228;156;246;156;228;land (603 px)
229;99;221;245;229;land (603 px)
230;195;146;165;230;land (603 px)
231;181;242;186;231;land (601 px)
232;169;113;252;232;land (600 px)
233;247;207;226;233;land (600 px)
234;129;213;175;234;land (600 px)
235;41;213;254;235;land (600 px)
236;246;241;18;236;land (599 px)
237;216;117;249;237;land (599 px)
238;109;210;199;238;land (599 px)
239;166;208;133;239;land (598 px)
240;149;160;242;240;land (596 px)
241;245;194;183;241;land (596 px)
242;234;181;211;242;land (596 px)
243;183;225;216;243;land (596 px)
244;231;208;209;244;land (595 px)
245;130;209;173;245;land (595 px)
246;168;207;243;246;land (595 px)
247;232;187;174;247;land (594 px)
248;131;237;229;248;land (594 px)
249;188;222;159;249;land (594 px)
250;187;209;116;250;land (594 px)
251;254;82;246;251;land (594 px)
252;246;244;230;252;land (593 px)
253;172;130;229;253;land (593 px)
254;116;234;191;254;land (593 px)
255;222;239;93;255;land (593 px)
256;177;216;184;256;land (592 px)
257;99;235;196;257;land (591 px)
258;208;134;196;258;land (591 px)
259;190;142;192;259;land (590 px)
260;189;185;135;260;land (590 px)
261;251;10;251;261;land (590 px)
262;221;150;240;262;land (590 px)
263;190;194;219;263;land (589 px)
264;225;186;187;264;land (589 px)
265;221;131;190;265;land (589 px)
266;143;208;178;266;land (589 px)
267;254;227;130;267;land (589 px)
268;250;194;167;268;land (589 px)
269;157;207;253;269;land (589 px)
270;100;203;216;270;land (588 px)
271;179;248;73;271;land (588 px)
272;196;56;254;272;land (588 px)
273;93;170;246;273;land (588 px)
274;210;216;127;274;land (587 px)
275;123;196;253;275;land (587 px)
276;251;226;228;276;land (587 px)
277;227;244;208;277;land (586 px)
278;133;174;204;278;land (586 px)
279;244;169;164;279;land (585 px)
280;164;224;130;280;land (585 px)
281;250;182;206;281;land (584 px)
282;164;130;250;282;land (584 px)
283;198;180;164;283;land (584 px)
284;241;217;151;284;land (583 px)
285;218;219;246;285;land (583 px)
286;233;230;197;286;land (582 px)
287;152;239;211;287;land (582 px)
288;224;195;98;288;land (581 px)
289;235;166;220;289;land (581 px)
290;173;211;180;290;land (581 px)
291;188;143;232;291;land (581 px)
292;131;200;237;292;land (581 px)
293;172;198;134;293;land (581 px)
294;186;166;235;294;land (580 px)
295;217;127;161;295;land (580 px)
296;212;242;183;296;land (580 px)
297;204;168;137;297;land (580 px)
298;194;216;115;298;land (579 px)
299;199;113;238;299;land (579 px)
300;206;157;186;300;land (579 px)
301;254;222;129;301;land (578 px)
302;238;129;204;302;land (578 px)
303;76;248;190;303;land (578 px)
304;181;134;201;304;land (578 px)
305;115;242;162;305;land (577 px)
306;246;159;219;306;land (577 px)
307;131;167;219;307;land (576 px)
308;84;250;175;308;land (576 px)
309;219;234;99;309;land (576 px)
310;202;128;191;310;land (575 px)
311;82;247;225;311;land (575 px)
312;105;193;226;312;land (574 px)
313;233;204;246;313;land (574 px)
314;235;239;230;314;land (574 px)
315;138;252;161;315;land (574 px)
316;247;212;213;316;land (574 px)
317;23;244;239;317;land (573 px)
318;102;228;182;318;land (573 px)
319;210;174;253;319;land (573 px)
320;243;121;211;320;land (572 px)
321;179;174;218;321;land (571 px)
322;240;155;124;322;land (571 px)
323;236;115;212;323;land (571 px)
324;153;254;236;324;land (571 px)
325;107;171;231;325;land (570 px)
326;249;57;221;326;land (570 px)
327;243;176;239;327;land (570 px)
328;185;214;167;328;land (569 px)
329;86;224;229;329;land (569 px)
330;241;234;48;330;land (569 px)
331;232;250;218;331;land (568 px)
332;182;163;185;332;land (568 px)
333;253;28;225;333;land (568 px)
334;216;199;174;334;land (568 px)
335;120;249;168;335;land (568 px)
336;230;170;134;336;land (566 px)
337;195;175;174;337;land (566 px)
338;244;199;244;338;land (565 px)
339;236;229;120;339;land (565 px)
340;131;228;142;340;land (564 px)
341;245;197;61;341;land (564 px)
342;130;246;205;342;land (564 px)
343;221;146;200;343;land (564 px)
344;167;222;188;344;land (563 px)
345;193;231;227;345;land (563 px)
346;146;164;209;346;land (563 px)
347;209;199;147;347;land (563 px)
348;94;198;208;348;land (562 px)
349;180;70;250;349;land (562 px)
350;195;186;137;350;land (562 px)
351;171;246;151;351;land (562 px)
352;222;192;142;352;land (562 px)
353;216;208;146;353;land (562 px)
354;211;177;200;354;land (562 px)
355;8;241;253;355;land (561 px)
356;212;185;200;356;land (561 px)
357;222;180;89;357;land (560 px)
358;210;239;120;358;land (560 px)
359;148;222;135;359;land (560 px)
360;238;223;41;360;land (560 px)
361;204;130;250;361;land (559 px)
362;190;86;240;362;land (559 px)
363;235;192;123;363;land (559 px)
364;195;220;94;364;land (559 px)
365;137;194;250;365;land (558 px)
366;170;226;175;366;land (558 px)
367;170;199;214;367;land (558 px)
368;154;112;238;368;land (557 px)
369;194;151;230;369;land (557 px)
370;197;141;226;370;land (556 px)
371;250;202;134;371;land (555 px)
372;174;237;254;372;land (555 px)
373;249;156;184;373;land (555 px)
374;104;223;175;374;land (554 px)
375;135;159;230;375;land (554 px)
376;239;143;177;376;land (554 px)
377;133;165;227;377;land (554 px)
378;219;245;91;378;land (554 px)
379;155;224;235;379;land (553 px)
380;223;224;73;380;land (553 px)
381;185;162;200;381;land (553 px)
382;201;219;224;382;land (553 px)
383;230;88;220;383;land (552 px)
384;127;199;225;384;land (552 px)
385;211;159;194;385;land (552 px)
386;119;247;219;386;land (552 px)
387;200;243;194;387;land (551 px)
388;152;200;198;388;land (550 px)
389;79;244;232;389;land (550 px)
390;254;250;242;390;land (550 px)
391;156;205;215;391;land (549 px)
392;218;143;150;392;land (549 px)
393;119;221;241;393;land (548 px)
394;62;217;241;394;land (548 px)
395;238;228;166;395;land (548 px)
396;219;238;102;396;land (548 px)
397;239;223;188;397;land (547 px)
398;250;72;249;398;land (547 px)
399;235;215;123;399;land (547 px)
400;107;184;225;400;land (547 px)
401;167;241;213;401;land (546 px)
402;214;250;79;402;land (546 px)
403;227;173;234;403;land (546 px)
404;181;243;95;404;land (546 px)
405;79;216;221;405;land (546 px)
406;232;223;210;406;land (546 px)
407;92;230;200;407;land (546 px)
408;110;235;249;408;land (546 px)
409;135;177;213;409;land (545 px)
410;130;157;225;410;land (545 px)
411;126;214;237;411;land (544 px)
412;250;177;160;412;land (544 px)
413;225;82;240;413;land (544 px)
414;252;124;144;414;land (543 px)
415;226;192;137;415;land (543 px)
416;227;251;174;416;land (542 px)
417;165;216;233;417;land (542 px)
418;130;161;247;418;land (542 px)
419;204;246;89;419;land (542 px)
420;48;233;247;420;land (542 px)
421;217;196;111;421;land (542 px)
422;202;164;156;422;land (542 px)
423;143;189;170;423;land (541 px)
424;233;158;222;424;land (541 px)
425;24;254;235;425;land (541 px)
426;175;239;241;426;land (541 px)
427;120;212;169;427;land (541 px)
428;206;243;164;428;land (541 px)
429;99;183;253;429;land (541 px)
430;253;215;141;430;land (541 px)
431;208;115;230;431;land (540 px)
432;115;221;198;432;land (540 px)
433;244;154;247;433;land (540 px)
434;225;242;156;434;land (540 px)
435;198;193;133;435;land (539 px)
436;242;96;202;436;land (539 px)
437;167;100;235;437;land (538 px)
438;229;227;185;438;land (538 px)
439;165;161;180;439;land (538 px)
440;254;121;219;440;land (538 px)
441;184;241;192;441;land (538 px)
442;231;193;179;442;land (537 px)
443;224;251;152;443;land (537 px)
444;215;234;85;444;land (536 px)
445;126;216;245;445;land (536 px)
446;203;204;221;446;land (535 px)
447;236;80;253;447;land (535 px)
448;243;165;219;448;land (535 px)
449;239;31;239;449;land (535 px)
450;167;206;249;450;land (535 px)
451;241;91;254;451;land (535 px)
452;106;175;248;452;land (535 px)
453;164;245;123;453;land (534 px)
454;215;249;214;454;land (534 px)
455;180;183;173;455;land (534 px)
456;124;228;208;456;land (534 px)
457;176;200;223;457;land (534 px)
458;196;211;125;458;land (534 px)
459;247;124;159;459;land (534 px)
460;168;116;229;460;land (534 px)
461;190;106;230;461;land (534 px)
462;120;251;174;462;land (534 px)
463;240;185;164;463;land (533 px)
464;251;194;145;464;land (533 px)
465;140;184;239;465;land (533 px)
466;232;253;164;466;land (532 px)
467;170;176;174;467;land (532 px)
468;193;239;147;468;land (531 px)
469;213;252;156;469;land (531 px)
470;254;251;126;470;land (531 px)
471;127;174;221;471;land (531 px)
472;62;211;234;472;land (530 px)
473;126;178;211;473;land (530 px)
474;184;162;192;474;land (530 px)
475;207;244;214;475;land (530 px)
476;215;206;251;476;land (530 px)
477;233;70;224;477;land (529 px)
478;189;211;161;478;land (529 px)
479;211;208;236;479;land (529 px)
480;161;254;92;480;land (528 px)
481;166;236;130;481;land (528 px)
482;217;194;107;482;land (528 px)
483;150;188;238;483;land (528 px)
484;203;164;208;484;land (527 px)
485;240;147;216;485;land (527 px)
486;224;163;158;486;land (527 px)
487;191;184;170;487;land (527 px)
488;180;230;216;488;land (527 px)
489;197;187;228;489;land (527 px)
490;220;143;207;490;land (527 px)
491;222;140;166;491;land (526 px)
492;140;227;248;492;land (526 px)
493;239;98;224;493;land (526 px)
494;158;237;125;494;land (526 px)
495;251;241;31;495;land (524 px)
496;155;227;205;496;land (524 px)
497;24;252;224;497;land (524 px)
498;197;212;150;498;land (523 px)
499;243;144;221;499;land (523 px)
500;105;227;205;500;land (523 px)
501;161;218;170;501;land (523 px)
502;237;101;213;502;land (522 px)
503;211;239;188;503;land (522 px)
504;30;250;248;504;land (522 px)
505;240;233;149;505;land (522 px)
506;203;132;170;506;land (521 px)
507;247;254;219;507;land (521 px)
508;243;116;194;508;land (520 px)
509;136;175;228;509;land (520 px)
510;108;240;211;510;land (520 px)
511;242;206;254;511;land (520 px)
512;189;120;243;512;land (520 px)
513;87;247;222;513;land (519 px)
514;219;219;92;514;land (519 px)
515;141;178;198;515;land (518 px)
516;228;229;78;516;land (518 px)
517;236;199;121;517;land (518 px)
518;213;103;229;518;land (517 px)
519;139;251;110;519;land (517 px)
520;174;230;113;520;land (516 px)
521;157;175;179;521;land (516 px)
522;238;181;107;522;land (515 px)
523;222;128;219;523;land (515 px)
524;198;176;127;524;land (515 px)
525;216;190;206;525;land (515 px)
526;145;221;235;526;land (515 px)
527;166;129;238;527;land (514 px)
528;192;193;196;528;land (514 px)
529;209;74;246;529;land (514 px)
530;166;138;249;530;land (514 px)
531;73;193;244;531;land (513 px)
532;242;142;185;532;land (513 px)
533;171;210;120;533;land (513 px)
534;205;254;140;534;land (513 px)
535;245;238;147;535;land (512 px)
536;242;84;226;536;land (512 px)
537;251;208;80;537;land (512 px)
538;240;188;127;538;land (512 px)
539;198;95;221;539;land (512 px)
540;157;198;212;540;land (512 px)
541;254;211;172;541;land (512 px)
542;150;150;254;542;land (512 px)
543;247;118;221;543;land (511 px)
544;218;211;131;544;land (511 px)
545;137;172;198;545;land (510 px)
546;252;181;200;546;land (510 px)
547;187;249;129;547;land (510 px)
548;126;220;188;548;land (510 px)
549;239;225;48;549;land (509 px)
550;251;77;184;550;land (509 px)
551;59;236;234;551;land (509 px)
552;136;165;215;552;land (509 px)
553;124;189;230;553;land (509 px)
554;250;219;236;554;land (508 px)
555;214;173;167;555;land (508 px)
556;253;185;80;556;land (508 px)
557;234;57;241;557;land (508 px)
558;193;81;229;558;land (507 px)
559;216;86;203;559;land (507 px)
560;148;179;207;560;land (506 px)
561;119;236;225;561;land (506 px)
562;176;195;228;562;land (506 px)
563;244;40;232;563;land (506 px)
564;211;161;129;564;land (505 px)
565;254;83;253;565;land (505 px)
566;168;189;240;566;land (505 px)
567;196;141;170;567;land (504 px)
568;196;190;136;568;land (504 px)
569;209;185;121;569;land (504 px)
570;173;247;142;570;land (503 px)
571;199;235;152;571;land (503 px)
572;204;208;174;572;land (503 px)
573;84;194;248;573;land (503 px)
574;206;180;132;574;land (503 px)
575;220;178;168;575;land (502 px)
576;181;178;220;576;land (502 px)
577;124;240;223;577;land (502 px)
578;83;230;189;578;land (502 px)
579;230;215;124;579;land (502 px)
580;230;205;231;580;land (502 px)
581;223;216;174;581;land (500 px)
582;184;106;237;582;land (499 px)
583;208;152;248;583;land (499 px)
584;244;178;141;584;land (499 px)
585;235;133;231;585;land (499 px)
586;144;230;235;586;land (499 px)
587;227;51;241;587;land (499 px)
588;199;138;190;588;land (499 px)
589;147;150;219;589;land (498 px)
590;204;219;222;590;land (498 px)
591;203;249;162;591;land (498 px)
592;215;226;145;592;land (498 px)
593;183;245;146;593;land (497 px)
594;143;249;168;594;land (497 px)
595;245;210;226;595;land (497 px)
596;198;69;238;596;land (497 px)
597;188;115;254;597;land (496 px)
598;254;199;127;598;land (496 px)
599;98;242;246;599;land (496 px)
600;246;246;134;600;land (496 px)
601;102;243;216;601;land (496 px)
602;238;173;202;602;land (495 px)
603;160;194;163;603;land (495 px)
604;93;189;240;604;land (495 px)
605;203;97;235;605;land (495 px)
606;221;91;230;606;land (494 px)
607;240;224;222;607;land (494 px)
608;131;183;186;608;land (494 px)
609;244;249;39;609;land (494 px)
610;146;192;211;610;land (494 px)
611;183;161;244;611;land (494 px)
612;245;166;128;612;land (494 px)
613;114;149;245;613;land (493 px)
614;232;239;234;614;land (493 px)
615;190;220;171;615;land (493 px)
616;162;219;152;616;land (492 px)
617;192;222;192;617;land (492 px)
618;160;222;130;618;land (492 px)
619;228;122;238;619;land (492 px)
620;192;242;132;620;land (492 px)
621;244;84;223;621;land (492 px)
622;226;145;237;622;land (492 px)
623;216;118;175;623;land (491 px)
624;223;176;104;624;land (491 px)
625;206;151;147;625;land (491 px)
626;118;233;235;626;land (490 px)
627;223;184;242;627;land (490 px)
628;239;166;253;628;land (490 px)
629;180;218;211;629;land (489 px)
630;225;254;98;630;land (489 px)
631;237;239;33;631;land (489 px)
632;150;201;197;632;land (489 px)
633;191;202;242;633;land (489 px)
634;121;204;218;634;land (489 px)
635;179;156;224;635;land (489 px)
636;236;111;210;636;land (489 px)
637;172;216;220;637;land (488 px)
638;225;251;117;638;land (488 px)
639;183;249;192;639;land (488 px)
640;161;202;147;640;land (488 px)
641;167;215;132;641;land (488 px)
642;241;253;66;642;land (488 px)
643;155;224;219;643;land (487 px)
644;95;231;184;644;land (487 px)
645;150;240;249;645;land (487 px)
646;130;165;216;646;land (486 px)
647;51;239;227;647;land (485 px)
648;246;202;254;648;land (485 px)
649;210;237;109;649;land (485 px)
650;124;235;182;650;land (484 px)
651;228;76;239;651;land (484 px)
652;241;102;233;652;land (484 px)
653;181;222;221;653;land (484 px)
654;80;237;254;654;land (484 px)
655;237;182;226;655;land (484 px)
656;233;199;167;656;land (484 px)
657;239;112;184;657;land (484 px)
658;114;201;225;658;land (483 px)
659;242;182;242;659;land (483 px)
660;232;249;52;660;land (483 px)
661;82;251;240;661;land (483 px)
662;208;182;238;662;land (483 px)
663;77;213;221;663;land (483 px)
664;108;240;178;664;land (482 px)
665;135;233;221;665;land (482 px)
666;222;245;180;666;land (482 px)
667;223;124;207;667;land (481 px)
668;196;206;209;668;land (481 px)
669;219;76;254;669;land (481 px)
670;187;251;86;670;land (481 px)
671;246;222;118;671;land (480 px)
672;226;130;245;672;land (480 px)
673;83;215;246;673;land (480 px)
674;249;18;242;674;land (480 px)
675;244;243;166;675;land (480 px)
676;247;204;101;676;land (480 px)
677;165;191;176;677;land (480 px)
678;76;244;215;678;land (480 px)
679;222;135;233;679;land (480 px)
680;171;241;184;680;land (479 px)
681;244;184;173;681;land (479 px)
682;167;238;129;682;land (479 px)
683;219;217;194;683;land (479 px)
684;169;195;242;684;land (479 px)
685;227;250;118;685;land (478 px)
686;170;211;169;686;land (478 px)
687;142;226;167;687;land (478 px)
688;205;79;252;688;land (478 px)
689;124;205;197;689;land (478 px)
690;181;242;136;690;land (478 px)
691;94;216;247;691;land (478 px)
692;176;228;232;692;land (477 px)
693;230;239;173;693;land (477 px)
694;164;198;154;694;land (477 px)
695;113;229;170;695;land (476 px)
696;170;114;245;696;land (476 px)
697;193;95;246;697;land (476 px)
698;174;216;178;698;land (476 px)
699;235;113;168;699;land (476 px)
700;246;115;141;700;land (476 px)
701;73;237;227;701;land (476 px)
702;124;197;218;702;land (475 px)
703;49;254;233;703;land (475 px)
704;130;211;227;704;land (475 px)
705;148;213;166;705;land (475 px)
706;90;202;222;706;land (474 px)
707;79;253;201;707;land (474 px)
708;206;168;183;708;land (474 px)
709;237;162;142;709;land (474 px)
710;77;212;242;710;land (473 px)
711;241;226;159;711;land (473 px)
712;63;253;221;712;land (473 px)
713;124;251;199;713;land (473 px)
714;153;161;233;714;land (473 px)
715;145;237;232;715;land (473 px)
716;202;99;251;716;land (472 px)
717;107;206;208;717;land (472 px)
718;240;150;183;718;land (472 px)
719;129;241;217;719;land (472 px)
720;230;197;211;720;land (471 px)
721;90;253;192;721;land (471 px)
722;180;174;217;722;land (471 px)
723;161;154;222;723;land (471 px)
724;99;236;189;724;land (471 px)
725;184;192;222;725;land (471 px)
726;145;118;253;726;land (471 px)
727;210;203;240;727;land (471 px)
728;167;212;209;728;land (471 px)
729;136;220;197;729;land (470 px)
730;252;229;238;730;land (470 px)
731;252;69;223;731;land (470 px)
732;162;217;232;732;land (470 px)
733;239;166;150;733;land (470 px)
734;185;141;251;734;land (470 px)
735;187;223;103;735;land (470 px)
736;74;204;247;736;land (469 px)
737;243;233;164;737;land (469 px)
738;213;118;185;738;land (469 px)
739;217;216;219;739;land (468 px)
740;222;193;146;740;land (468 px)
741;236;87;251;741;land (468 px)
742;197;244;195;742;land (468 px)
743;206;247;88;743;land (468 px)
744;220;175;156;744;land (468 px)
745;72;215;227;745;land (468 px)
746;95;173;236;746;land (468 px)
747;182;77;245;747;land (467 px)
748;116;186;211;748;land (467 px)
749;238;161;149;749;land (467 px)
750;224;248;115;750;land (467 px)
751;87;252;253;751;land (466 px)
752;177;185;205;752;land (466 px)
753;187;146;206;753;land (466 px)
754;105;185;224;754;land (466 px)
755;200;219;123;755;land (466 px)
756;234;188;219;756;land (465 px)
757;103;196;209;757;land (465 px)
758;190;102;245;758;land (465 px)
759;241;142;179;759;land (465 px)
760;87;246;198;760;land (464 px)
761;121;250;237;761;land (464 px)
762;254;248;51;762;land (464 px)
763;146;227;236;763;land (464 px)
764;200;154;220;764;land (464 px)
765;101;223;199;765;land (464 px)
766;213;237;243;766;land (464 px)
767;233;187;158;767;land (463 px)
768;194;219;165;768;land (463 px)
769;120;238;212;769;land (463 px)
770;155;228;126;770;land (462 px)
771;230;233;235;771;land (462 px)
772;246;82;225;772;land (462 px)
773;235;101;179;773;land (462 px)
774;137;248;171;774;land (462 px)
775;176;142;188;775;land (462 px)
776;98;194;209;776;land (462 px)
777;180;238;145;777;land (461 px)
778;190;221;202;778;land (461 px)
779;238;92;237;779;land (461 px)
780;85;180;244;780;land (461 px)
781;242;172;147;781;land (461 px)
782;217;249;79;782;land (460 px)
783;245;207;58;783;land (460 px)
784;138;222;202;784;land (460 px)
785;235;240;85;785;land (460 px)
786;240;158;232;786;land (460 px)
787;201;215;136;787;land (460 px)
788;242;53;238;788;land (459 px)
789;67;192;243;789;land (459 px)
790;253;218;145;790;land (459 px)
791;196;245;217;791;land (459 px)
792;173;145;196;792;land (459 px)
793;216;96;195;793;land (458 px)
794;147;221;240;794;land (458 px)
795;245;180;213;795;land (458 px)
796;157;188;165;796;land (458 px)
797;234;78;190;797;land (458 px)
798;159;205;157;798;land (458 px)
799;196;120;219;799;land (457 px)
800;227;206;197;800;land (457 px)
801;207;218;89;801;land (457 px)
802;131;183;203;802;land (456 px)
803;236;228;103;803;land (456 px)
804;182;174;178;804;land (456 px)
805;181;171;245;805;land (456 px)
806;199;224;234;806;land (456 px)
807;134;176;227;807;land (456 px)
808;220;52;249;808;land (455 px)
809;253;151;241;809;land (455 px)
810;178;199;238;810;land (455 px)
811;122;199;234;811;land (455 px)
812;241;175;219;812;land (455 px)
813;185;182;174;813;land (454 px)
814;245;221;249;814;land (453 px)
815;215;195;119;815;land (453 px)
816;172;133;238;816;land (453 px)
817;249;254;166;817;land (453 px)
818;254;115;138;818;land (453 px)
819;103;171;251;819;land (453 px)
820;182;246;118;820;land (453 px)
821;166;233;105;821;land (453 px)
822;163;193;215;822;land (452 px)
823;160;156;215;823;land (452 px)
824;224;252;27;824;land (452 px)
825;247;112;193;825;land (452 px)
826;196;212;155;826;land (452 px)
827;227;180;169;827;land (452 px)
828;234;242;83;828;land (451 px)
829;234;43;247;829;land (451 px)
830;184;163;172;830;land (451 px)
831;245;200;63;831;land (451 px)
832;220;188;220;832;land (451 px)
833;188;149;185;833;land (451 px)
834;241;185;86;834;land (451 px)
835;245;153;230;835;land (450 px)
836;153;148;245;836;land (449 px)
837;229;83;228;837;land (449 px)
838;253;217;32;838;land (449 px)
839;61;233;219;839;land (449 px)
840;232;137;138;840;land (449 px)
841;196;90;216;841;land (448 px)
842;142;225;145;842;land (448 px)
843;145;253;208;843;land (448 px)
844;224;229;199;844;land (448 px)
845;220;165;193;845;land (448 px)
846;241;158;128;846;land (448 px)
847;249;47;215;847;land (447 px)
848;128;252;227;848;land (447 px)
849;163;123;215;849;land (447 px)
850;215;247;145;850;land (446 px)
851;233;219;250;851;land (446 px)
852;226;216;126;852;land (446 px)
853;233;233;128;853;land (446 px)
854;130;241;227;854;land (445 px)
855;228;243;220;855;land (445 px)
856;182;245;194;856;land (444 px)
857;242;144;203;857;land (444 px)
858;217;156;216;858;land (444 px)
859;125;199;252;859;land (444 px)
860;219;197;180;860;land (444 px)
861;165;92;254;861;land (444 px)
862;112;212;243;862;land (443 px)
863;223;192;246;863;land (443 px)
864;183;207;238;864;land (443 px)
865;217;247;143;865;land (443 px)
866;209;143;204;866;land (442 px)
867;185;213;228;867;land (442 px)
868;153;135;227;868;land (442 px)
869;237;251;186;869;land (442 px)
870;117;180;216;870;land (442 px)
871;145;143;254;871;land (441 px)
872;170;199;254;872;land (441 px)
873;180;164;254;873;land (441 px)
874;151;220;219;874;land (441 px)
875;229;209;69;875;land (441 px)
876;151;146;242;876;land (441 px)
877;217;181;117;877;land (440 px)
878;190;157;196;878;land (440 px)
879;182;248;183;879;land (440 px)
880;223;131;193;880;land (440 px)
881;205;129;210;881;land (440 px)
882;238;80;182;882;land (440 px)
883;217;96;221;883;land (440 px)
884;247;243;78;884;land (439 px)
885;205;169;161;885;land (439 px)
886;166;208;204;886;land (439 px)
887;244;172;177;887;land (439 px)
888;252;88;173;888;land (439 px)
889;234;137;188;889;land (439 px)
890;251;247;182;890;land (439 px)
891;192;124;239;891;land (439 px)
892;111;181;209;892;land (439 px)
893;106;171;251;893;land (438 px)
894;196;230;123;894;land (438 px)
895;184;188;230;895;land (438 px)
896;100;246;160;896;land (438 px)
897;176;233;124;897;land (438 px)
898;197;147;185;898;land (437 px)
899;212;226;90;899;land (437 px)
900;178;178;195;900;land (437 px)
901;117;220;188;901;land (437 px)
902;251;245;88;902;land (437 px)
903;143;189;185;903;land (436 px)
904;166;209;150;904;land (436 px)
905;182;218;208;905;land (436 px)
906;196;135;227;906;land (435 px)
907;242;248;65;907;land (435 px)
908;237;160;195;908;land (435 px)
909;213;207;86;909;land (433 px)
910;203;188;183;910;land (433 px)
911;47;221;240;911;land (433 px)
912;95;251;175;912;land (433 px)
913;247;190;236;913;land (432 px)
914;228;221;115;914;land (432 px)
915;234;139;178;915;land (432 px)
916;195;170;150;916;land (432 px)
917;130;138;241;917;land (432 px)
918;130;238;143;918;land (431 px)
919;239;103;186;919;land (431 px)
920;189;221;146;920;land (431 px)
921;242;228;69;921;land (431 px)
922;184;226;243;922;land (430 px)
923;244;178;180;923;land (430 px)
924;182;181;198;924;land (430 px)
925;100;248;184;925;land (430 px)
926;187;231;171;926;land (430 px)
927;250;206;192;927;land (429 px)
928;162;92;253;928;land (429 px)
929;241;108;236;929;land (429 px)
930;223;209;76;930;land (428 px)
931;246;113;208;931;land (428 px)
932;157;213;217;932;land (428 px)
933;136;242;165;933;land (428 px)
934;244;221;206;934;land (428 px)
935;235;113;174;935;land (427 px)
936;212;198;149;936;land (427 px)
937;140;176;231;937;land (427 px)
938;227;133;206;938;land (427 px)
939;67;235;199;939;land (426 px)
940;149;114;247;940;land (426 px)
941;245;150;111;941;land (426 px)
942;232;175;236;942;land (425 px)
943;254;91;232;943;land (425 px)
944;244;119;179;944;land (425 px)
945;51;232;237;945;land (425 px)
946;241;13;253;946;land (424 px)
947;188;110;231;947;land (424 px)
948;218;216;178;948;land (424 px)
949;129;230;206;949;land (424 px)
950;220;69;224;950;land (424 px)
951;219;191;208;951;land (423 px)
952;178;250;232;952;land (423 px)
953;205;95;226;953;land (423 px)
954;186;226;118;954;land (423 px)
955;248;106;189;955;land (423 px)
956;193;217;119;956;land (423 px)
957;185;175;177;957;land (423 px)
958;223;230;138;958;land (423 px)
959;207;233;79;959;land (423 px)
960;190;151;232;960;land (422 px)
961;253;68;215;961;land (422 px)
962;195;198;144;962;land (422 px)
963;235;194;94;963;land (421 px)
964;122;187;241;964;land (421 px)
965;178;119;240;965;land (421 px)
966;214;177;147;966;land (421 px)
967;142;193;203;967;land (421 px)
968;186;231;210;968;land (420 px)
969;201;45;246;969;land (420 px)
970;176;241;235;970;land (420 px)
971;254;140;161;971;land (419 px)
972;191;80;236;972;land (419 px)
973;147;211;248;973;land (419 px)
974;254;179;161;974;land (419 px)
975;47;213;247;975;land (418 px)
976;241;157;198;976;land (418 px)
977;123;231;248;977;land (418 px)
978;157;198;238;978;land (417 px)
979;212;205;238;979;land (417 px)
980;165;121;218;980;land (417 px)
981;163;240;248;981;land (417 px)
982;245;140;220;982;land (416 px)
983;217;238;201;983;land (416 px)
984;237;147;132;984;land (416 px)
985;81;216;253;985;land (416 px)
986;198;138;232;986;land (416 px)
987;238;87;187;987;land (416 px)
988;166;246;88;988;land (415 px)
989;190;241;117;989;land (415 px)
990;252;242;10;990;land (415 px)
991;191;188;249;991;land (415 px)
992;140;210;183;992;land (415 px)
993;199;192;170;993;land (414 px)
994;221;205;206;994;land (414 px)
995;187;216;130;995;land (414 px)
996;153;174;212;996;land (413 px)
997;249;191;167;997;land (413 px)
998;197;182;193;998;land (413 px)
999;180;127;248;999;land (413 px)
1000;182;243;194;1000;land (413 px)
1001;240;59;248;1001;land (413 px)
1002;170;169;230;1002;land (412 px)
1003;196;196;140;1003;land (412 px)
1004;87;244;205;1004;land (412 px)
1005;215;77;246;1005;land (412 px)
1006;95;236;213;1006;land (412 px)
1007;197;207;156;1007;land (411 px)
1008;225;99;196;1008;land (411 px)
1009;187;235;233;1009;land (411 px)
1010;160;127;228;1010;land (411 px)
1011;252;236;207;1011;land (411 px)
1012;225;249;243;1012;land (410 px)
1013;241;216;105;1013;land (410 px)
1014;216;122;180;1014;land (410 px)
1015;157;234;216;1015;land (410 px)
1016;228;171;162;1016;land (409 px)
1017;200;117;254;1017;land (409 px)
1018;236;221;136;1018;land (409 px)
1019;225;90;217;1019;land (409 px)
1020;226;94;209;1020;land (409 px)
1021;103;216;181;1021;land (408 px)
1022;247;123;198;1022;land (408 px)
1023;144;229;164;1023;land (408 px)
1024;231;245;76;1024;land (408 px)
1025;105;208;221;1025;land (407 px)
1026;254;197;96;1026;land (407 px)
1027;51;227;171;1027;lake
1028;241;113;185;1028;land (407 px)
1029;70;236;227;1029;land (407 px)
1030;224;121;167;1030;land (407 px)
1031;114;180;235;1031;land (407 px)
1032;249;190;190;1032;land (407 px)
1033;195;199;147;1033;land (407 px)
1034;202;246;238;1034;land (407 px)
1035;217;251;67;1035;land (406 px)
1036;185;250;213;1036;land (406 px)
1037;207;140;226;1037;land (406 px)
1038;152;202;218;1038;land (406 px)
1039;129;219;200;1039;land (406 px)
1040;166;243;144;1040;land (406 px)
1041;250;211;215;1041;land (406 px)
1042;166;141;212;1042;land (406 px)
1043;110;169;221;1043;land (406 px)
1044;236;213;210;1044;land (406 px)
1045;200;177;183;1045;land (405 px)
1046;178;233;206;1046;land (405 px)
1047;242;188;241;1047;land (404 px)
1048;198;232;109;1048;land (404 px)
1049;145;143;237;1049;land (403 px)
1050;192;195;144;1050;land (403 px)
1051;204;254;225;1051;land (403 px)
1052;190;101;231;1052;land (403 px)
1053;27;252;222;1053;land (402 px)
1054;242;153;208;1054;land (402 px)
1055;171;163;180;1055;land (401 px)
1056;137;187;239;1056;land (401 px)
1057;177;149;229;1057;land (401 px)
1058;109;242;213;1058;land (401 px)
1059;244;234;125;1059;land (401 px)
1060;240;229;246;1060;land (401 px)
1061;249;209;109;1061;land (401 px)
1062;243;90;252;1062;land (401 px)
1063;239;238;141;1063;land (401 px)
1064;199;141;235;1064;land (401 px)
1065;87;208;207;1065;land (400 px)
1066;178;115;231;1066;land (400 px)
1067;192;178;254;1067;land (400 px)
1068;169;240;239;1068;land (400 px)
1069;251;113;163;1069;land (399 px)
1070;192;167;199;1070;land (399 px)
1071;210;207;137;1071;land (399 px)
1072;228;245;230;1072;land (399 px)
1073;237;228;176;1073;land (398 px)
1074;240;191;76;1074;land (397 px)
1075;184;247;160;1075;land (397 px)
1076;198;222;125;1076;land (397 px)
1077;243;105;218;1077;land (397 px)
1078;166;249;85;1078;land (397 px)
1079;233;229;88;1079;land (397 px)
1080;213;73;252;1080;land (397 px)
1081;77;243;188;1081;land (397 px)
1082;167;139;252;1082;land (397 px)
1083;86;216;225;1083;land (396 px)
1084;233;158;151;1084;land (396 px)
1085;238;105;230;1085;land (396 px)
1086;175;206;137;1086;land (395 px)
1087;184;198;233;1087;land (395 px)
1088;165;206;159;1088;land (395 px)
1089;236;233;56;1089;land (395 px)
1090;218;180;188;1090;land (395 px)
1091;197;206;223;1091;land (395 px)
1092;238;73;196;1092;land (394 px)
1093;211;134;199;1093;land (394 px)
1094;50;230;232;1094;land (394 px)
1095;143;108;249;1095;land (393 px)
1096;165;208;177;1096;land (393 px)
1097;195;232;192;1097;land (393 px)
1098;199;208;214;1098;land (393 px)
1099;212;212;140;1099;land (392 px)
1100;138;243;183;1100;land (392 px)
1101;228;116;224;1101;land (392 px)
1102;231;214;251;1102;land (392 px)
1103;223;173;118;1103;land (392 px)
1104;189;243;80;1104;land (392 px)
1105;212;178;142;1105;land (391 px)
1106;141;154;250;1106;land (390 px)
1107;180;245;94;1107;land (390 px)
1108;187;92;241;1108;land (390 px)
1109;76;243;230;1109;land (390 px)
1110;126;211;241;1110;land (390 px)
1111;118;244;170;1111;land (390 px)
1112;207;172;134;1112;land (390 px)
1113;213;116;243;1113;land (388 px)
1114;178;226;135;1114;land (388 px)
1115;182;167;243;1115;land (388 px)
1116;194;176;236;1116;land (388 px)
1117;77;249;221;1117;land (386 px)
1118;132;168;250;1118;land (386 px)
1119;197;190;139;1119;land (386 px)
1120;193;224;165;1120;land (386 px)
1121;132;208;237;1121;land (385 px)
1122;212;104;229;1122;land (385 px)
1123;222;126;181;1123;land (385 px)
1124;253;207;120;1124;land (385 px)
1125;104;210;243;1125;land (385 px)
1126;237;204;183;1126;land (384 px)
1127;245;236;124;1127;land (384 px)
1128;176;233;253;1128;land (384 px)
1129;163;227;229;1129;land (383 px)
1130;238;177;222;1130;land (383 px)
1131;158;123;250;1131;land (383 px)
1132;233;186;205;1132;land (382 px)
1133;225;158;171;1133;land (381 px)
1134;218;212;223;1134;land (381 px)
1135;215;173;128;1135;land (381 px)
1136;154;253;180;1136;land (381 px)
1137;178;240;195;1137;land (381 px)
1138;234;222;207;1138;land (381 px)
1139;248;188;210;1139;land (380 px)
1140;245;185;181;1140;land (380 px)
1141;193;204;121;1141;land (380 px)
1142;235;175;159;1142;land (379 px)
1143;156;113;239;1143;land (379 px)
1144;210;204;215;1144;land (379 px)
1145;193;171;236;1145;land (379 px)
1146;192;236;77;1146;land (379 px)
1147;195;199;242;1147;land (379 px)
1148;174;153;176;1148;land (378 px)
1149;66;201;254;1149;land (378 px)
1150;95;245;175;1150;land (377 px)
1151;133;249;242;1151;land (376 px)
1152;186;165;199;1152;land (376 px)
1153;225;110;197;1153;land (375 px)
1154;241;133;146;1154;land (375 px)
1155;87;214;248;1155;land (375 px)
1156;216;218;130;1156;land (375 px)
1157;116;160;252;1157;land (374 px)
1158;147;172;246;1158;land (374 px)
1159;137;149;229;1159;land (374 px)
1160;140;219;229;1160;land (374 px)
1161;148;185;235;1161;land (374 px)
1162;65;239;246;1162;land (374 px)
1163;185;142;233;1163;land (373 px)
1164;253;252;27;1164;land (373 px)
1165;159;129;251;1165;land (373 px)
1166;233;37;236;1166;land (373 px)
1167;179;251;250;1167;land (373 px)
1168;194;210;115;1168;land (372 px)
1169;183;223;179;1169;land (372 px)
1170;248;5;248;1170;land (372 px)
1171;86;249;181;1171;land (371 px)
1172;47;252;229;1172;land (371 px)
1173;244;160;134;1173;land (371 px)
1174;242;177;244;1174;land (370 px)
1175;240;23;241;1175;land (370 px)
1176;224;199;116;1176;land (370 px)
1177;135;237;202;1177;land (369 px)
1178;253;114;176;1178;land (369 px)
1179;252;104;183;1179;land (369 px)
1180;187;237;129;1180;land (369 px)
1181;222;177;142;1181;land (369 px)
1182;159;139;204;1182;land (368 px)
1183;229;172;199;1183;land (368 px)
1184;228;127;222;1184;land (368 px)
1185;251;215;181;1185;land (367 px)
1186;127;233;172;1186;land (367 px)
1187;192;239;168;1187;land (366 px)
1188;67;246;239;1188;land (366 px)
1189;191;232;196;1189;land (366 px)
1190;253;251;82;1190;land (366 px)
1191;195;144;218;1191;land (366 px)
1192;161;192;162;1192;land (365 px)
1193;220;210;106;1193;land (365 px)
1194;130;220;165;1194;land (365 px)
1195;209;211;227;1195;land (365 px)
1196;241;133;182;1196;land (365 px)
1197;235;195;182;1197;land (364 px)
1198;93;175;254;1198;land (364 px)
1199;242;202;86;1199;land (364 px)
1200;179;118;205;1200;land (364 px)
1201;200;175;150;1201;land (363 px)
1202;167;233;252;1202;land (363 px)
1203;249;152;124;1203;land (363 px)
1204;224;245;88;1204;land (363 px)
1205;205;209;219;1205;land (363 px)
1206;230;152;163;1206;land (363 px)
1207;59;224;231;1207;land (362 px)
1208;232;83;207;1208;land (362 px)
1209;248;246;65;1209;land (362 px)
1210;179;165;235;1210;land (362 px)
1211;181;117;243;1211;land (362 px)
1212;200;213;207;1212;land (361 px)
1213;145;250;204;1213;land (360 px)
1214;193;192;226;1214;land (359 px)
1215;249;183;164;1215;land (359 px)
1216;210;220;98;1216;land (359 px)
1217;215;85;200;1217;land (359 px)
1218;211;203;253;1218;land (359 px)
1219;128;200;194;1219;land (358 px)
1220;102;246;161;1220;land (358 px)
1221;171;222;231;1221;land (358 px)
1222;238;244;175;1222;land (358 px)
1223;189;246;239;1223;land (357 px)
1224;252;150;212;1224;land (357 px)
1225;235;149;136;1225;land (357 px)
1226;232;98;202;1226;land (357 px)
1227;157;212;186;1227;land (356 px)
1228;130;239;173;1228;land (356 px)
1229;170;246;192;1229;land (355 px)
1230;138;250;173;1230;land (355 px)
1231;202;244;163;1231;land (355 px)
1232;242;83;199;1232;land (355 px)
1233;199;254;64;1233;land (354 px)
1234;222;119;209;1234;land (354 px)
1235;204;233;194;1235;land (353 px)
1236;198;81;239;1236;land (353 px)
1237;189;192;147;1237;land (353 px)
1238;161;251;129;1238;land (352 px)
1239;135;207;245;1239;land (352 px)
1240;174;161;226;1240;land (352 px)
1241;199;164;194;1241;land (352 px)
1242;219;215;229;1242;land (352 px)
1243;213;126;186;1243;land (351 px)
1244;244;205;229;1244;land (351 px)
1245;117;170;218;1245;land (350 px)
1246;188;209;103;1246;land (350 px)
1247;229;205;203;1247;land (350 px)
1248;210;133;214;1248;land (349 px)
1249;207;224;132;1249;land (349 px)
1250;239;108;158;1250;land (349 px)
1251;87;196;234;1251;land (349 px)
1252;185;144;237;1252;land (349 px)
1253;219;174;157;1253;land (349 px)
1254;248;115;221;1254;land (348 px)
1255;103;243;249;1255;land (348 px)
1256;212;211;247;1256;land (348 px)
1257;55;238;251;1257;land (347 px)
1258;203;251;240;1258;land (347 px)
1259;247;204;133;1259;land (346 px)
1260;244;170;229;1260;land (346 px)
1261;244;180;97;1261;land (346 px)
1262;182;240;107;1262;land (346 px)
1263;252;126;135;1263;land (345 px)
1264;160;160;242;1264;land (345 px)
1265;198;219;99;1265;land (345 px)
1266;121;206;186;1266;land (345 px)
1267;244;105;156;1267;land (344 px)
1268;243;147;187;1268;land (344 px)
1269;175;252;155;1269;land (344 px)
1270;242;232;216;1270;land (344 px)
1271;236;236;55;1271;land (343 px)
1272;224;239;126;1272;land (343 px)
1273;114;206;244;1273;land (343 px)
1274;221;60;251;1274;land (342 px)
1275;188;183;218;1275;land (342 px)
1276;136;154;225;1276;land (341 px)
1277;101;237;171;1277;land (341 px)
1278;252;175;243;1278;land (341 px)
1279;252;193;205;1279;land (340 px)
1280;201;172;230;1280;land (340 px)
1281;162;209;176;1281;land (340 px)
1282;236;103;242;1282;land (339 px)
1283;238;230;81;1283;land (339 px)
1284;202;250;116;1284;land (339 px)
1285;205;127;188;1285;land (339 px)
1286;79;209;229;1286;land (339 px)
1287;222;94;248;1287;land (338 px)
1288;247;108;164;1288;land (338 px)
1289;122;180;223;1289;land (338 px)
1290;189;174;156;1290;land (337 px)
1291;221;118;253;1291;land (337 px)
1292;245;213;137;1292;land (336 px)
1293;239;176;250;1293;land (336 px)
1294;246;223;117;1294;land (335 px)
1295;79;236;113;1295;land (335 px)
1296;95;234;171;1296;land (335 px)
1297;163;252;105;1297;land (335 px)
1298;144;119;240;1298;land (334 px)
1299;242;227;211;1299;land (334 px)
1300;225;69;208;1300;land (334 px)
1301;244;69;238;1301;land (334 px)
1302;215;68;236;1302;land (333 px)
1303;113;242;152;1303;land (333 px)
1304;251;149;230;1304;land (333 px)
1305;121;214;208;1305;land (332 px)
1306;179;141;236;1306;land (332 px)
1307;106;171;236;1307;land (332 px)
1308;251;152;108;1308;land (332 px)
1309;166;114;225;1309;land (332 px)
1310;62;248;216;1310;land (331 px)
1311;137;237;184;1311;land (331 px)
1312;235;193;180;1312;land (331 px)
1313;249;163;188;1313;land (331 px)
1314;251;176;73;1314;land (330 px)
1315;171;199;191;1315;land (330 px)
1316;234;132;240;1316;land (330 px)
1317;117;213;249;1317;land (329 px)
1318;202;251;181;1318;land (329 px)
1319;139;182;216;1319;land (329 px)
1320;130;210;200;1320;land (329 px)
1321;126;252;232;1321;land (329 px)
1322;184;151;236;1322;land (328 px)
1323;83;218;238;1323;land (328 px)
1324;108;243;166;1324;land (328 px)
1325;221;135;189;1325;land (328 px)
1326;95;165;246;1326;land (327 px)
1327;210;108;206;1327;land (327 px)
1328;173;222;253;1328;land (327 px)
1329;189;213;236;1329;land (327 px)
1330;235;72;236;1330;land (327 px)
1331;249;133;154;1331;land (325 px)
1332;222;128;162;1332;land (325 px)
1333;183;163;127;1333;land (325 px)
1334;219;251;221;1334;land (324 px)
1335;187;235;79;1335;land (323 px)
1336;218;95;211;1336;land (323 px)
1337;54;252;241;1337;land (323 px)
1338;89;248;235;1338;land (323 px)
1339;211;171;238;1339;land (322 px)
1340;192;254;171;1340;land (322 px)
1341;233;51;249;1341;land (322 px)
1342;241;213;109;1342;land (322 px)
1343;151;230;122;1343;land (321 px)
1344;182;245;186;1344;land (321 px)
1345;237;186;140;1345;land (321 px)
1346;244;56;248;1346;land (320 px)
1347;129;240;143;1347;land (320 px)
1348;233;245;32;1348;land (320 px)
1349;131;221;186;1349;land (320 px)
1350;211;197;248;1350;land (320 px)
1351;199;159;155;1351;land (320 px)
1352;163;246;171;1352;land (319 px)
1353;58;248;203;1353;land (319 px)
1354;196;176;205;1354;land (319 px)
1355;223;113;218;1355;land (318 px)
1356;249;153;147;1356;land (318 px)
1357;96;227;182;1357;land (318 px)
1358;245;250;230;1358;land (317 px)
1359;218;217;81;1359;land (317 px)
1360;230;40;240;1360;land (317 px)
1361;226;102;206;1361;land (317 px)
1362;244;189;199;1362;land (316 px)
1363;177;230;224;1363;land (316 px)
1364;218;192;248;1364;land (316 px)
1365;101;251;163;1365;land (316 px)
1366;214;167;239;1366;land (315 px)
1367;254;100;191;1367;land (313 px)
1368;234;241;241;1368;land (313 px)
1369;117;230;198;1369;land (313 px)
1370;93;249;242;1370;land (311 px)
1371;254;248;101;1371;land (311 px)
1372;238;158;248;1372;land (311 px)
1373;184;241;184;1373;land (311 px)
1374;222;149;208;1374;land (311 px)
1375;190;158;204;1375;land (310 px)
1376;244;140;211;1376;land (310 px)
1377;230;225;237;1377;land (310 px)
1378;182;218;250;1378;land (309 px)
1379;199;115;234;1379;land (309 px)
1380;200;171;185;1380;land (308 px)
1381;239;239;158;1381;land (308 px)
1382;241;92;213;1382;land (307 px)
1383;252;149;163;1383;land (307 px)
1384;222;198;132;1384;land (307 px)
1385;179;143;187;1385;land (307 px)
1386;249;177;223;1386;land (306 px)
1387;169;149;242;1387;land (306 px)
1388;226;86;197;1388;land (306 px)
1389;200;52;248;1389;land (306 px)
1390;243;229;222;1390;land (306 px)
1391;115;250;241;1391;land (305 px)
1392;196;165;210;1392;land (305 px)
1393;173;225;138;1393;land (305 px)
1394;205;200;142;1394;land (304 px)
1395;94;219;243;1395;land (303 px)
1396;156;165;246;1396;land (303 px)
1397;167;129;220;1397;land (300 px)
1398;205;167;137;1398;land (299 px)
1399;211;148;219;1399;land (299 px)
1400;245;158;187;1400;land (298 px)
1401;152;180;213;1401;land (298 px)
1402;215;133;252;1402;land (297 px)
1403;233;116;175;1403;land (297 px)
1404;248;241;175;1404;land (297 px)
1405;181;157;250;1405;land (295 px)
1406;174;243;242;1406;land (294 px)
1407;144;213;198;1407;land (293 px)
1408;184;181;154;1408;land (293 px)
1409;142;243;140;1409;land (293 px)
1410;239;109;254;1410;land (293 px)
1411;249;236;220;1411;land (292 px)
1412;120;252;141;1412;land (292 px)
1413;246;190;121;1413;land (292 px)
1414;242;225;197;1414;land (292 px)
1415;154;179;243;1415;land (291 px)
1416;229;57;246;1416;land (290 px)
1417;198;236;73;1417;land (290 px)
1418;124;206;175;1418;land (289 px)
1419;186;249;95;1419;land (289 px)
1420;243;122;208;1420;land (289 px)
1421;186;131;207;1421;land (289 px)
1422;225;245;71;1422;land (288 px)
1423;147;225;232;1423;land (288 px)
1424;222;60;220;1424;land (287 px)
1425;247;215;223;1425;land (287 px)
1426;211;220;247;1426;land (286 px)
1427;173;231;111;1427;land (285 px)
1428;205;219;114;1428;land (284 px)
1429;112;250;195;1429;land (284 px)
1430;232;159;119;1430;land (283 px)
1431;222;213;203;1431;land (283 px)
1432;184;92;253;1432;land (283 px)
1433;208;191;125;1433;land (283 px)
1434;36;231;235;1434;land (282 px)
1435;252;224;41;1435;land (282 px)
1436;46;120;190;1436;lake
1437;152;190;170;1437;land (280 px)
1438;46;95;252;1438;land (280 px)
1439;210;244;100;1439;land (277 px)
1440;168;150;182;1440;land (277 px)
1441;189;198;153;1441;land (276 px)
1442;252;189;152;1442;land (276 px)
1443;253;228;121;1443;land (275 px)
1444;65;239;204;1444;land (275 px)
1445;108;244;231;1445;land (275 px)
1446;253;251;36;1446;land (274 px)
1447;240;228;99;1447;land (274 px)
1448;174;233;213;1448;land (273 px)
1449;222;95;192;1449;land (273 px)
1450;173;150;204;1450;land (273 px)
1451;172;97;249;1451;land (272 px)
1452;212;95;243;1452;land (272 px)
1453;205;153;161;1453;land (271 px)
1454;62;244;246;1454;land (271 px)
1455;241;82;233;1455;land (270 px)
1456;251;76;195;1456;land (270 px)
1457;136;198;175;1457;land (269 px)
1458;33;250;243;1458;land (269 px)
1459;198;96;229;1459;land (268 px)
1460;211;221;74;1460;land (268 px)
1461;231;96;217;1461;land (268 px)
1462;56;232;218;1462;land (267 px)
1463;200;177;147;1463;land (266 px)
1464;249;236;108;1464;land (264 px)
1465;216;205;132;1465;land (264 px)
1466;232;90;248;1466;land (263 px)
1467;186;118;206;1467;land (263 px)
1468;100;230;183;1468;land (263 px)
1469;143;230;151;1469;land (263 px)
1470;153;247;246;1470;land (263 px)
1471;193;223;122;1471;land (262 px)
1472;209;188;122;1472;land (261 px)
1473;251;121;206;1473;land (261 px)
1474;254;169;185;1474;land (261 px)
1475;238;58;251;1475;land (260 px)
1476;230;77;252;1476;land (260 px)
1477;106;232;196;1477;land (260 px)
1478;237;199;130;1478;land (259 px)
1479;230;251;136;1479;land (259 px)
1480;251;205;93;1480;land (258 px)
1481;78;212;210;1481;land (257 px)
1482;149;232;187;1482;land (257 px)
1483;221;136;243;1483;land (257 px)
1484;194;147;236;1484;land (256 px)
1485;125;153;232;1485;land (256 px)
1486;184;120;216;1486;land (256 px)
1487;115;253;245;1487;land (256 px)
1488;67;252;201;1488;land (254 px)
1489;174;229;160;1489;land (253 px)
1490;245;201;75;1490;land (253 px)
1491;225;250;190;1491;land (253 px)
1492;253;166;227;1492;land (252 px)
1493;230;252;169;1493;land (251 px)
1494;178;236;229;1494;land (251 px)
1495;251;184;206;1495;land (251 px)
1496;195;153;190;1496;land (251 px)
1497;220;227;134;1497;land (250 px)
1498;194;121;192;1498;land (250 px)
1499;195;142;208;1499;land (250 px)
1500;242;116;176;1500;land (249 px)
1501;136;120;251;1501;land (249 px)
1502;180;155;213;1502;land (248 px)
1503;181;178;182;1503;land (248 px)
1504;150;177;213;1504;land (248 px)
1505;233;231;137;1505;land (246 px)
1506;80;221;227;1506;land (246 px)
1507;234;154;222;1507;land (245 px)
1508;117;251;251;1508;land (245 px)
1509;162;177;169;1509;land (245 px)
1510;220;244;204;1510;land (244 px)
1511;209;105;222;1511;land (244 px)
1512;153;188;215;1512;land (243 px)
1513;83;201;249;1513;land (243 px)
1514;252;67;239;1514;land (243 px)
1515;152;195;183;1515;land (241 px)
1516;218;189;200;1516;land (240 px)
1517;222;190;238;1517;land (240 px)
1518;253;200;206;1518;land (240 px)
1519;106;246;213;1519;land (239 px)
1520;132;190;210;1520;land (239 px)
1521;226;107;178;1521;land (239 px)
1522;47;242;219;1522;land (238 px)
1523;197;72;241;1523;land (238 px)
1524;77;249;207;1524;land (237 px)
1525;137;205;200;1525;land (237 px)
1526;0;255;255;1526;lake
1527;241;13;249;1527;land (235 px)
1528;87;230;248;1528;land (235 px)
1529;244;187;131;1529;land (235 px)
1530;72;223;216;1530;land (234 px)
1531;238;197;223;1531;land (232 px)
1532;249;170;176;1532;land (232 px)
1533;158;253;244;1533;land (231 px)
1534;191;178;193;1534;land (231 px)
1535;159;239;240;1535;land (231 px)
1536;211;106;254;1536;land (230 px)
1537;237;117;212;1537;land (229 px)
1538;188;169;253;1538;land (229 px)
1539;187;173;167;1539;land (229 px)
1540;251;239;139;1540;land (227 px)
1541;186;238;128;1541;land (226 px)
1542;226;92;204;1542;land (224 px)
1543;196;248;188;1543;land (223 px)
1544;144;245;138;1544;land (223 px)
1545;87;202;252;1545;land (221 px)
1546;191;233;100;1546;land (220 px)
1547;219;143;177;1547;land (219 px)
1548;247;177;252;1548;land (218 px)
1549;236;161;171;1549;land (218 px)
1550;150;239;232;1550;land (218 px)
1551;200;157;151;1551;land (217 px)
1552;203;249;234;1552;land (216 px)
1553;182;126;242;1553;land (215 px)
1554;219;229;254;1554;land (215 px)
1555;176;207;124;1555;land (215 px)
1556;234;188;169;1556;land (215 px)
1557;108;214;249;1557;land (214 px)
1558;253;238;203;1558;land (214 px)
1559;149;192;168;1559;land (214 px)
1560;211;105;185;1560;land (214 px)
1561;83;222;209;1561;land (213 px)
1562;220;220;106;1562;land (213 px)
1563;133;227;231;1563;land (212 px)
1564;156;217;191;1564;land (212 px)
1565;112;180;243;1565;land (210 px)
1566;182;238;211;1566;land (209 px)
1567;189;222;140;1567;land (208 px)
1568;183;215;246;1568;land (208 px)
1569;205;167;145;1569;land (207 px)
1570;252;240;166;1570;land (205 px)
1571;193;213;148;1571;land (204 px)
1572;156;192;224;1572;land (203 px)
1573;81;228;228;1573;land (203 px)
1574;205;203;96;1574;land (202 px)
1575;233;138;193;1575;land (200 px)
1576;216;178;118;1576;land (200 px)
1577;169;233;169;1577;land (200 px)
1578;171;161;193;1578;land (199 px)
1579;207;220;129;1579;land (198 px)
1580;179;87;239;1580;land (197 px)
1581;184;123;197;1581;land (197 px)
1582;236;74;247;1582;land (196 px)
1583;200;149;160;1583;land (194 px)
1584;87;234;188;1584;land (189 px)
1585;193;82;238;1585;land (188 px)
1586;224;134;177;1586;land (186 px)
1587;207;83;211;1587;land (186 px)
1588;232;176;135;1588;land (183 px)
1589;199;72;239;1589;land (182 px)
1590;221;235;230;1590;land (181 px)
1591;199;204;228;1591;land (180 px)
1592;242;63;236;1592;land (180 px)
1593;115;170;214;1593;land (180 px)
1594;85;192;235;1594;land (178 px)
1595;180;199;229;1595;land (178 px)
1596;97;252;232;1596;land (177 px)
1597;139;248;196;1597;land (176 px)
1598;188;248;227;1598;land (173 px)
1599;189;246;167;1599;land (173 px)
1600;247;210;193;1600;land (173 px)
1601;208;110;190;1601;land (170 px)
1602;224;192;240;1602;land (169 px)
1603;223;208;117;1603;land (167 px)
1604;180;157;233;1604;land (165 px)
1605;87;248;235;1605;land (165 px)
1606;178;251;199;1606;land (162 px)
1607;227;161;145;1607;land (161 px)
1608;142;185;199;1608;land (160 px)
1609;209;231;194;1609;land (158 px)
1610;209;229;190;1610;land (156 px)
1611;217;156;171;1611;land (156 px)
1612;208;249;119;1612;land (154 px)
1613;85;224;226;1613;land (153 px)
1614;208;181;192;1614;land (153 px)
1615;228;151;186;1615;land (152 px)
1616;244;241;237;1616;land (152 px)
1617;151;202;227;1617;land (151 px)
1618;209;207;197;1618;land (149 px)
1619;105;188;245;1619;land (147 px)
1620;204;211;148;1620;land (144 px)
1621;237;205;61;1621;land (144 px)
1622;248;117;106;1622;lake
1623;175;163;253;1623;land (137 px)
1624;245;149;107;1624;land (136 px)
1625;213;223;242;1625;land (135 px)
1626;209;142;194;1626;land (134 px)
1627;97;252;192;1627;land (133 px)
1628;153;124;241;1628;land (129 px)
1629;149;123;246;1629;land (126 px)
1630;246;49;243;1630;land (126 px)
1631;190;153;212;1631;land (125 px)
1632;229;161;240;1632;land (121 px)
1633;121;172;245;1633;land (119 px)
1634;246;121;212;1634;land (119 px)
1635;239;121;179;1635;land (118 px)
1636;200;72;251;1636;land (116 px)
1637;211;153;246;1637;land (115 px)
1638;222;219;236;1638;land (114 px)
1639;167;218;223;1639;land (109 px)
1640;38;230;246;1640;land (109 px)
1641;170;171;177;1641;lake
1642;185;227;65;1642;land (103 px)
1643;136;180;233;1643;land (99 px)
1644;253;231;100;1644;land (98 px)
1645;234;242;154;1645;land (97 px)
1646;120;190;237;1646;land (92 px)
1647;168;215;245;1647;land (91 px)
1648;224;190;219;1648;land (89 px)
1649;221;246;81;1649;land (87 px)
1650;177;200;195;1650;land (86 px)
1651;241;203;169;1651;land (84 px)
1652;201;177;242;1652;land (83 px)
1653;210;120;242;1653;land (83 px)
1654;231;191;97;1654;land (81 px)
1655;206;169;242;1655;land (77 px)
1656;237;220;70;1656;land (69 px)
1657;196;247;132;1657;land (66 px)
1658;245;34;234;1658;land (64 px)
1659;200;93;214;1659;land (64 px)
1660;218;99;212;1660;land (63 px)
1661;209;114;251;1661;land (62 px)
1662;242;245;175;1662;land (59 px)
1663;202;234;80;1663;land (56 px)
1664;189;64;249;1664;land (55 px)
1665;125;246;172;1665;land (52 px)
1666;163;245;169;1666;land (48 px)
1667;41;252;227;1667;land (44 px)
1668;243;254;123;1668;land (44 px)
1669;234;243;100;1669;land (44 px)
1670;239;132;210;1670;land (42 px)
1671;125;138;252;1671;land (41 px)
1672;211;149;219;1672;land (40 px)
1673;215;244;61;1673;land (40 px)
1674;168;253;170;1674;land (38 px)
1675;240;197;89;1675;land (36 px)
1676;224;186;194;1676;land (36 px)
1677;147;105;249;1677;land (34 px)
1678;215;147;248;1678;land (33 px)
1679;192;172;232;1679;land (32 px)
1680;251;244;205;1680;land (31 px)
1681;151;196;243;1681;land (30 px)
1682;238;233;218;1682;land (29 px)
1683;212;133;228;1683;land (28 px)
1684;144;226;130;1684;land (28 px)
1685;253;172;200;1685;land (27 px)
1686;120;195;203;1686;land (25 px)
1687;176;208;167;1687;land (25 px)
1688;50;236;227;1688;land (24 px)
1689;183;111;213;1689;land (24 px)
1690;191;108;206;1690;land (24 px)
1691;58;245;212;1691;land (22 px)
1692;231;225;96;1692;land (22 px)
1693;222;214;181;1693;land (21 px)
1694;187;244;163;1694;land (21 px)
1695;188;221;203;1695;land (20 px)
1696;116;202;203;1696;land (20 px)
1697;239;243;249;1697;land (18 px)
1698;242;195;195;1698;land (17 px)
1699;228;241;54;1699;land (17 px)
1700;199;95;244;1700;land (16 px)
1701;201;236;179;1701;land (16 px)
1702;243;175;102;1702;land (16 px)
1703;250;229;240;1703;land (15 px)
1704;151;178;233;1704;land (15 px)
1705;235;179;117;1705;land (15 px)
1706;137;240;219;1706;land (15 px)
1707;243;25;251;1707;land (14 px)
1708;188;230;169;1708;land (14 px)
1709;226;210;218;1709;land (14 px)
1710;178;181;148;1710;land (14 px)
1711;167;194;203;1711;land (14 px)
1712;105;214;223;1712;land (13 px)
1713;217;41;248;1713;land (13 px)
1714;189;245;237;1714;land (13 px)
1715;194;188;155;1715;land (13 px)
1716;103;233;203;1716;land (12 px)
1718;98;200;251;1718;land (11 px)
1719;246;74;232;1719;land (11 px)
1720;227;209;102;1720;land (11 px)
1721;186;157;239;1721;land (10 px)
1722;146;179;209;1722;land (10 px)
1723;232;197;79;1723;land (10 px)
1724;247;108;192;1724;land (9 px)
1725;237;181;88;1725;land (9 px)
1726;219;212;189;1726;land (9 px)
1727;170;111;223;1727;land (9 px)
1728;206;199;222;1728;land (9 px)
1729;40;167;199;1729;wasteland
1730;142;197;116;1730;wasteland
1731;65;174;59;1731;wasteland
1732;255;0;0;1732;wasteland
1733;136;252;52;1733;water (5980 px)
1734;141;148;216;1734;water (5556 px)
1735;54;45;235;1735;water (5549 px)
1736;250;222;198;1736;water (5537 px)
1737;152;182;124;1737;water (5255 px)
1738;55;195;125;1738;water (5008 px)
1739;169;182;54;1739;water (4913 px)
1740;133;35;173;1740;water (4910 px)
1741;129;72;203;1741;water (4811 px)
1742;200;231;39;1742;water (4761 px)
1743;167;87;213;1743;water (4759 px)
1744;137;112;110;1744;water (4710 px)
1745;116;247;198;1745;water (4656 px)
1746;236;59;172;1746;water (4623 px)
1747;116;150;221;1747;water (4551 px)
1748;61;163;139;1748;water (4446 px)
1749;46;231;186;1749;water (4438 px)
1750;241;153;138;1750;water (4383 px)
1751;190;159;191;1751;water (4354 px)
1752;50;20;17;1752;water (4351 px)
1753;132;50;205;1753;water (4339 px)
1754;110;242;168;1754;water (4333 px)
1755;38;139;3;1755;water (4293 px)
1756;223;27;82;1756;water (4287 px)
1757;90;120;134;1757;water (4158 px)
1758;183;198;83;1758;water (4047 px)
1759;157;215;78;1759;water (4038 px)
1760;189;230;74;1760;water (4015 px)
1761;205;245;44;1761;water (3838 px)
1762;81;92;20;1762;water (3760 px)
1763;170;213;177;1763;water (3758 px)
1764;126;27;79;1764;water (3692 px)
1765;9;178;149;1765;water (3661 px)
1766;188;245;39;1766;water (3658 px)
1767;141;171;62;1767;water (3649 px)
1768;82;174;100;1768;water (3612 px)
1769;16;22;79;1769;water (3601 px)
1770;183;180;79;1770;water (3590 px)
1771;180;246;42;1771;water (3575 px)
1772;201;203;63;1772;water (3564 px)
1773;94;63;237;1773;water (3549 px)
1774;159;179;244;1774;water (3539 px)
1775;74;135;215;1775;water (3529 px)
1776;210;197;158;1776;water (3529 px)
1777;142;9;61;1777;water (3525 px)
1778;172;205;225;1778;water (3504 px)
1779;0;64;122;1779;water (3493 px)
1780;225;135;180;1780;water (3482 px)
1781;76;13;187;1781;water (3473 px)
1782;178;126;235;1782;water (3463 px)
1783;242;5;111;1783;water (3441 px)
1784;178;192;114;1784;water (3437 px)
1785;145;62;96;1785;water (3425 px)
1786;23;110;177;1786;water (3424 px)
1787;124;92;213;1787;water (3419 px)
1788;164;108;160;1788;water (3419 px)
1789;213;234;22;1789;water (3416 px)
1790;195;221;24;1790;water (3409 px)
1791;122;47;194;1791;water (3402 px)
1792;120;147;129;1792;water (3401 px)
1793;107;237;51;1793;water (3396 px)
1794;165;151;224;1794;water (3395 px)
1795;53;238;220;1795;water (3389 px)
1796;20;63;226;1796;water (3383 px)
1797;206;227;234;1797;water (3372 px)
1798;186;88;12;1798;water (3370 px)
1799;151;18;169;1799;water (3361 px)
1800;88;154;58;1800;water (3357 px)
1801;222;142;118;1801;water (3345 px)
1802;104;69;63;1802;water (3344 px)
1803;186;15;199;1803;water (3334 px)
1804;217;23;196;1804;water (3333 px)
1805;208;187;211;1805;water (3329 px)
1806;85;194;12;1806;water (3328 px)
1807;207;75;191;1807;water (3319 px)
1808;190;223;237;1808;water (3291 px)
1809;227;149;19;1809;water (3281 px)
1810;49;226;116;1810;water (3266 px)
1811;30;147;32;1811;water (3263 px)
1812;243;77;43;1812;water (3252 px)
1813;187;167;242;1813;water (3249 px)
1814;213;39;102;1814;water (3243 px)
1815;151;170;79;1815;water (3229 px)
1816;46;8;112;1816;water (3217 px)
1817;73;195;156;1817;water (3215 px)
1818;54;66;194;1818;water (3189 px)
1819;234;13;195;1819;water (3186 px)
1820;28;18;204;1820;water (3181 px)
1821;99;5;246;1821;water (3173 px)
1822;252;53;170;1822;water (3164 px)
1823;211;225;177;1823;water (3160 px)
1824;166;119;183;1824;water (3158 px)
1825;16;235;161;1825;water (3137 px)
1826;237;123;201;1826;water (3134 px)
1827;82;8;128;1827;water (3133 px)
1828;237;123;231;1828;water (3131 px)
1829;29;178;167;1829;water (3118 px)
1830;49;223;94;1830;water (3116 px)
1831;214;164;37;1831;water (3109 px)
1832;197;176;134;1832;water (3100 px)
1833;199;124;242;1833;water (3097 px)
1834;110;3;93;1834;water (3090 px)
1835;63;143;172;1835;water (3078 px)
1836;156;232;177;1836;water (3075 px)
1837;68;177;248;1837;water (3071 px)
1838;155;112;30;1838;water (3069 px)
1839;208;196;98;1839;water (3067 px)
1840;19;102;47;1840;water (3064 px)
1841;89;94;202;1841;water (3064 px)
1842;80;121;218;1842;water (3061 px)
1843;78;182;99;1843;water (3058 px)
1844;106;172;112;1844;water (3056 px)
1845;201;149;102;1845;water (3051 px)
1846;177;89;92;1846;water (3048 px)
1847;20;40;12;1847;water (3046 px)
1848;59;224;58;1848;water (3044 px)
1849;105;72;107;1849;water (3023 px)
1850;86;29;119;1850;water (3017 px)
1851;12;33;2;1851;water (3009 px)
1852;123;207;181;1852;water (3008 px)
1853;135;223;173;1853;water (2996 px)
1854;233;39;193;1854;water (2996 px)
1855;144;210;100;1855;water (2994 px)
1856;48;242;66;1856;water (2988 px)
1857;79;220;62;1857;water (2977 px)
1858;150;141;72;1858;water (2969 px)
1859;28;145;199;1859;water (2964 px)
1860;68;28;27;1860;water (2963 px)
1861;175;184;102;1861;water (2956 px)
1862;160;47;189;1862;water (2954 px)
1863;206;192;111;1863;water (2951 px)
1864;165;119;100;1864;water (2944 px)
1865;2;222;38;1865;water (2941 px)
1866;37;31;214;1866;water (2939 px)
1867;246;38;1;1867;water (2934 px)
1868;27;78;39;1868;water (2934 px)
1869;47;78;106;1869;water (2924 px)
1870;193;84;179;1870;water (2920 px)
1871;213;179;69;1871;water (2918 px)
1872;184;45;226;1872;water (2909 px)
1873;158;244;195;1873;water (2909 px)
1874;142;14;1;1874;water (2901 px)
1875;196;190;39;1875;water (2900 px)
1876;156;52;109;1876;water (2888 px)
1877;229;67;141;1877;water (2881 px)
1878;138;130;157;1878;water (2878 px)
1879;5;239;43;1879;water (2875 px)
1880;122;125;199;1880;water (2869 px)
1881;93;7;175;1881;water (2868 px)
1882;97;220;207;1882;water (2862 px)
1883;249;62;129;1883;water (2850 px)
1884;162;156;180;1884;water (2847 px)
1885;120;105;227;1885;water (2843 px)
1886;69;45;44;1886;water (2824 px)
1887;25;17;203;1887;water (2823 px)
1888;115;159;133;1888;water (2822 px)
1889;126;144;18;1889;water (2817 px)
1890;216;223;158;1890;water (2817 px)
1891;79;232;53;1891;water (2813 px)
1892;31;15;89;1892;water (2804 px)
1893;216;229;249;1893;water (2797 px)
1894;138;173;133;1894;water (2783 px)
1895;6;40;126;1895;water (2773 px)
1896;133;211;85;1896;water (2768 px)
1897;186;88;49;1897;water (2763 px)
1898;93;206;199;1898;water (2763 px)
1899;116;228;110;1899;water (2763 px)
1900;48;235;67;1900;water (2759 px)
1901;168;168;106;1901;water (2759 px)
1902;230;247;247;1902;water (2757 px)
1903;167;38;174;1903;water (2753 px)
1904;18;184;124;1904;water (2752 px)
1905;214;195;119;1905;water (2751 px)
1906;47;24;114;1906;water (2749 px)
1907;187;19;219;1907;water (2743 px)
1908;142;236;189;1908;water (2740 px)
1909;130;168;82;1909;water (2734 px)
1910;161;171;12;1910;water (2732 px)
1911;90;238;14;1911;water (2726 px)
1912;52;26;233;1912;water (2724 px)
1913;124;135;15;1913;water (2723 px)
1914;23;12;122;1914;water (2718 px)
1915;14;11;243;1915;water (2715 px)
1916;136;120;45;1916;water (2709 px)
1917;205;167;178;1917;water (2708 px)
1918;166;2;158;1918;water (2708 px)
1919;70;136;39;1919;water (2699 px)
1920;6;184;191;1920;water (2696 px)
1921;217;219;102;1921;water (2696 px)
1922;128;167;121;1922;water (2693 px)
1923;158;154;199;1923;water (2690 px)
1924;115;97;42;1924;water (2689 px)
1925;12;13;180;1925;water (2687 px)
1926;197;128;185;1926;water (2686 px)
1927;111;189;237;1927;water (2681 px)
1928;80;132;182;1928;water (2679 px)
1929;216;177;77;1929;water (2678 px)
1930;160;141;82;1930;water (2672 px)
1931;109;197;93;1931;water (2669 px)
1932;8;159;129;1932;water (2667 px)
1933;76;8;36;1933;water (2655 px)
1934;50;104;176;1934;water (2655 px)
1935;50;212;9;1935;water (2647 px)
1936;108;233;194;1936;water (2640 px)
1937;108;181;164;1937;water (2638 px)
1938;36;170;237;1938;water (2634 px)
1939;193;9;17;1939;water (2629 px)
1940;231;25;194;1940;water (2626 px)
1941;82;93;173;1941;water (2624 px)
1942;201;252;177;1942;water (2616 px)
1943;18;230;243;1943;water (2612 px)
1944;90;191;32;1944;water (2607 px)
1945;83;108;218;1945;water (2602 px)
1946;210;51;90;1946;water (2598 px)
1947;57;202;101;1947;water (2597 px)
1948;155;106;68;1948;water (2593 px)
1949;21;235;219;1949;water (2590 px)
1950;95;33;143;1950;water (2587 px)
1951;144;61;37;1951;water (2585 px)
1952;41;118;29;1952;water (2584 px)
1953;118;215;38;1953;water (2583 px)
1954;180;129;227;1954;water (2575 px)
1955;120;74;203;1955;water (2565 px)
1956;92;158;122;1956;water (2563 px)
1957;112;34;159;1957;water (2560 px)
1958;62;94;101;1958;water (2558 px)
1959;236;71;5;1959;water (2554 px)
1960;198;34;210;1960;water (2551 px)
1961;157;18;127;1961;water (2549 px)
1962;22;196;213;1962;water (2546 px)
1963;158;239;171;1963;water (2545 px)
1964;39;254;109;1964;water (2540 px)
1965;23;103;127;1965;water (2531 px)
1966;33;193;13;1966;water (2531 px)
1967;227;25;9;1967;water (2530 px)
1968;73;157;79;1968;water (2528 px)
1969;131;65;234;1969;water (2526 px)
1970;149;207;21;1970;water (2520 px)
1971;54;53;112;1971;water (2520 px)
1972;152;210;38;1972;water (2519 px)
1973;147;192;239;1973;water (2517 px)
1974;65;192;13;1974;water (2508 px)
1975;124;217;87;1975;water (2501 px)
1976;186;73;88;1976;water (2496 px)
1977;14;218;92;1977;water (2496 px)
1978;213;196;193;1978;water (2496 px)
1979;12;137;219;1979;water (2488 px)
1980;233;182;209;1980;water (2485 px)
1981;131;143;57;1981;water (2479 px)
1982;87;161;30;1982;water (2474 px)
1983;182;152;184;1983;water (2474 px)
1984;183;236;240;1984;water (2473 px)
1985;115;155;73;1985;water (2473 px)
1986;91;138;141;1986;water (2468 px)
1987;112;193;60;1987;water (2467 px)
1988;141;165;230;1988;water (2462 px)
1989;44;55;207;1989;water (2457 px)
1990;201;197;250;1990;water (2455 px)
1991;192;194;153;1991;water (2455 px)
1992;168;191;224;1992;water (2451 px)
1993;28;143;4;1993;water (2444 px)
1994;224;131;124;1994;water (2442 px)
1995;171;93;248;1995;water (2438 px)
1996;35;166;29;1996;water (2432 px)
1997;175;131;183;1997;water (2431 px)
1998;172;201;195;1998;water (2426 px)
1999;78;67;19;1999;water (2425 px)
2000;21;139;140;2000;water (2424 px)
2001;212;169;112;2001;water (2417 px)
2002;57;207;14;2002;water (2415 px)
2003;224;49;159;2003;water (2413 px)
2004;183;85;139;2004;water (2411 px)
2005;26;108;241;2005;water (2401 px)
2006;201;15;20;2006;water (2399 px)
2007;121;169;170;2007;water (2393 px)
2008;198;24;59;2008;water (2387 px)
2009;173;91;2;2009;water (2383 px)
2010;240;165;37;2010;water (2378 px)
2011;96;93;118;2011;water (2368 px)
2012;188;72;74;2012;water (2364 px)
2013;13;194;126;2013;water (2362 px)
2014;177;5;191;2014;water (2361 px)
2015;34;112;172;2015;water (2361 px)
2016;145;12;9;2016;water (2357 px)
2017;211;51;137;2017;water (2355 px)
2018;68;229;107;2018;water (2352 px)
2019;111;97;123;2019;water (2340 px)
2020;130;88;90;2020;water (2328 px)
2021;66;2;202;2021;water (2327 px)
2022;98;127;162;2022;water (2321 px)
2023;178;207;202;2023;water (2320 px)
2024;68;128;53;2024;water (2317 px)
2025;40;192;116;2025;water (2315 px)
2026;201;35;132;2026;water (2308 px)
2027;209;254;245;2027;water (2307 px)
2028;242;30;104;2028;water (2306 px)
2029;34;207;222;2029;water (2294 px)
2030;169;65;236;2030;water (2288 px)
2031;176;144;93;2031;water (2285 px)
2032;143;174;134;2032;water (2269 px)
2033;87;161;214;2033;water (2259 px)
2034;13;93;85;2034;water (2254 px)
2035;53;72;211;2035;water (2243 px)
2036;248;62;142;2036;water (2242 px)
2037;11;63;71;2037;water (2238 px)
2038;183;10;103;2038;water (2238 px)
2039;46;198;253;2039;water (2229 px)
2040;207;91;35;2040;water (2220 px)
2041;44;175;112;2041;water (2219 px)
2042;167;13;157;2042;water (2189 px)
2043;46;171;30;2043;water (2183 px)
2044;8;112;33;2044;water (2170 px)
2045;230;253;111;2045;water (2132 px)
2046;16;159;98;2046;water (2124 px)
2047;148;152;180;2047;water (2112 px)
2048;154;13;197;2048;water (2111 px)
2049;204;150;9;2049;water (2107 px)
2050;64;227;38;2050;water (2105 px)
2051;136;60;152;2051;water (2103 px)
2052;39;165;153;2052;water (2098 px)
2053;51;84;71;2053;water (2095 px)
2054;10;46;193;2054;water (2095 px)
2055;127;21;131;2055;water (2084 px)
2056;103;79;76;2056;water (2081 px)
2057;88;232;50;2057;water (2075 px)
2058;235;67;219;2058;water (2074 px)
2059;230;228;86;2059;water (2066 px)
2060;90;45;243;2060;water (2061 px)
2061;32;42;179;2061;water (2060 px)
2062;58;45;79;2062;water (2053 px)
2063;23;248;239;2063;water (2052 px)
2064;102;248;28;2064;water (2046 px)
2065;194;103;52;2065;water (2033 px)
2066;68;94;74;2066;water (2033 px)
2067;43;229;214;2067;water (2030 px)
2068;180;57;216;2068;water (2026 px)
2069;36;20;228;2069;water (2017 px)
2070;12;230;182;2070;water (2015 px)
2071;228;82;156;2071;water (1999 px)
2072;140;14;99;2072;water (1998 px)
2073;223;219;14;2073;water (1998 px)
2074;131;140;175;2074;water (1988 px)
2075;253;217;151;2075;water (1984 px)
2076;50;29;95;2076;water (1976 px)
2077;196;174;244;2077;water (1975 px)
2078;253;106;53;2078;water (1974 px)
2079;139;116;50;2079;water (1964 px)
2080;68;152;77;2080;water (1958 px)
2081;158;16;124;2081;water (1947 px)
2082;208;45;179;2082;water (1929 px)
2083;87;94;146;2083;water (1922 px)
2084;101;63;152;2084;water (1917 px)
2085;3;66;23;2085;water (1909 px)
2086;199;12;21;2086;water (1902 px)
2087;47;113;152;2087;water (1897 px)
2088;242;163;159;2088;water (1886 px)
2089;252;142;109;2089;water (1870 px)
2090;224;94;232;2090;water (1862 px)
2091;130;103;16;2091;water (1861 px)
2092;14;60;33;2092;water (1861 px)
2093;121;202;132;2093;water (1854 px)
2094;145;10;170;2094;water (1847 px)
2095;84;82;128;2095;water (1818 px)
2096;191;156;8;2096;water (1804 px)
2097;178;248;131;2097;water (1782 px)
2098;142;216;222;2098;water (1780 px)
2099;214;228;240;2099;water (1765 px)
2100;235;180;231;2100;water (1732 px)
2101;251;233;76;2101;water (1721 px)
2102;175;163;86;2102;water (1681 px)
2103;82;143;97;2103;water (1662 px)
2104;218;153;94;2104;water (1661 px)
2105;77;211;165;2105;water (1625 px)
2106;156;68;208;2106;water (1617 px)
2107;66;54;168;2107;water (1613 px)
2108;35;174;176;2108;water (1590 px)
2109;92;110;12;2109;water (1569 px)
2110;182;116;69;2110;water (1566 px)
2111;195;215;236;2111;water (1534 px)
2112;114;21;48;2112;water (1511 px)
2113;63;153;84;2113;water (1511 px)
2114;104;248;21;2114;water (1494 px)
2115;169;96;245;2115;water (1493 px)
2116;28;112;163;2116;water (1489 px)
2117;129;223;28;2117;water (1442 px)
2118;32;222;200;2118;water (1412 px)
2119;143;96;212;2119;water (1411 px)
2120;27;102;3;2120;water (1398 px)
2121;71;101;192;2121;water (1327 px)
2122;61;25;180;2122;water (1304 px)
2123;183;219;49;2123;water (1268 px)
2124;244;71;210;2124;water (1261 px)
2125;90;17;202;2125;water (1251 px)
2126;41;228;97;2126;water (1212 px)
2127;120;95;205;2127;water (1131 px)
2128;68;80;66;2128;water (1113 px)
2129;210;224;237;2129;water (1106 px)
2130;61;12;77;2130;water (1025 px)
2131;137;229;221;2131;water (986 px)
2132;41;119;164;2132;water (920 px)
2133;221;179;245;2133;water (880 px)
2134;203;25;132;2134;water (850 px)
2135;59;168;136;2135;water (807 px)
2136;118;36;153;2136;water (807 px)
2137;121;37;130;2137;water (798 px)
2138;24;51;9;2138;water (744 px)
2139;144;200;143;2139;water (715 px)
2140;216;237;221;2140;water (659 px)
2141;54;207;120;2141;water (610 px)
2142;38;100;132;2142;water (559 px)
2143;61;250;79;2143;water (502 px)
2144;222;45;54;2144;water (463 px)
2145;139;149;154;2145;water (310 px)
2146;240;209;17;2146;wasteland
2147;144;68;89;2147;water
2148;211;192;236;2148;water
2149;135;52;9;2149;wasteland
2150;186;80;50;2150;wasteland
2151;162;123;48;2151;wasteland
2152;121;236;196;2152;wasteland
2153;198;14;56;2153;wasteland
2154;4;188;147;2154;wasteland
2155;68;31;230;2155;wasteland
2156;32;153;163;2156;wasteland
2157;106;232;33;2157;wasteland
2158;49;85;252;2158;wasteland
2159;123;78;198;2159;wasteland
2160;55;224;253;2160;wasteland
2161;11;25;49;2161;wasteland
2162;204;169;167;2162;wasteland
2163;237;91;21;2163;wasteland
2164;33;232;152;2164;wasteland
2165;134;163;174;2165;wasteland
2166;224;228;100;2166;wasteland
2167;97;90;28;2167;wasteland
2168;252;87;251;2168;wasteland
2169;203;10;236;2169;wasteland
2170;225;234;16;2170;wasteland
2171;6;167;181;2171;wasteland
2172;156;89;56;2172;wasteland
2173;95;159;4;2173;wasteland
2174;225;11;30;2174;wasteland
2175;37;19;55;2175;wasteland
2176;68;184;34;2176;wasteland
2177;249;109;59;2177;wasteland
2178;8;5;90;2178;wasteland
2179;223;145;62;2179;wasteland
2180;68;76;21;2180;wasteland
2181;50;197;111;2181;wasteland
2182;204;27;57;2182;wasteland
2183;82;74;49;2183;wasteland
2184;185;21;156;2184;wasteland
2185;203;152;191;2185;wasteland
2186;240;100;158;2186;wasteland
2187;67;61;253;2187;wasteland
2188;2;49;228;2188;wasteland
2189;40;26;150;2189;wasteland
2190;106;13;139;2190;wasteland
2191;136;183;220;2191;wasteland
2192;67;151;228;2192;wasteland
2193;232;92;92;2193;wasteland
2194;128;151;163;2194;wasteland
2195;193;103;163;2195;wasteland
2196;12;173;182;2196;wasteland
2197;208;101;241;2197;wasteland
2198;228;205;225;2198;wasteland
2199;217;184;247;2199;wasteland
2200;248;94;184;2200;wasteland
2201;16;57;170;2201;wasteland
2202;73;87;119;2202;wasteland
2203;116;250;223;2203;wasteland
2204;146;55;229;2204;wasteland
2205;86;164;63;2205;wasteland
2206;149;100;80;2206;wasteland
