#Country Name: Please see filename.

graphical_culture = westerngfx

color = { 255 72 72 }

revolutionary_colors = { 8 1 8 }

historical_idea_groups = {
	administrative_conduct
	tech_lv1_infantry_ideas
	magic_lv1_magma_school
	tech_lv2_cavalry_ideas
	tech_lv3_artillery_ideas
	magic_lv3_spirit_school
	magic_lv3_celestial_school
	magic_lv3_blood_school
}

historical_units = {
	Void_Cavalry_1
	Void_Cavalry_2
	Void_Cavalry_3
	Void_Cavalry_4
	Void_Cavalry_5
}

monarch_names = {
	"Tev'Vez #0" = 100
	"Sar'Taki #0" = 100
	"Moj'Bal #0" = 100
	"Tru'Dku #0" = 100
	"Sha'Tyx #0" = 100
	"Mhe'Tepr #0" = 100
	"Kar'Mik #0" = 100
	"Jal'Surk #0" = 100
	"Kok'Gul #0" = 100
	"Jak'Ulx #0" = 100
	"Mut'Nale #0" = 100
	"Uti'Tal #0" = 100
	"Ryt'Koz #0" = 100
	"Cho'Torp #0" = 100
	"Sat'Hur #0" = 100
	
	"Tev'Vez #0" = -100
	"Sar'Taki #0" = -100
	"Moj'Bal #0" = -100
	"Tru'Dku #0" = -100
	"Sha'Tyx #0" = -100
	"Mhe'Tepr #0" = -100
	"Kar'Mik #0" = -100
	"Jal'Surk #0" = -100
	"Kok'Gul #0" = -100
	"Jak'Ulx #0" = -100
	"Mut'Nale #0" = -100
	"Uti'Tal #0" = -100
	"Ryt'Koz #0" = -100
	"Cho'Torp #0" = -100
	"Sat'Hur #0" = -100
}

leader_names = {
	Tev'Vez
	Sar'Taki
	Moj'Bal
	Tru'Dku
	Sha'Tyx
	Mhe'Tepr
	Kar'Mik
	Jal'Surk
	Kok'Gul
	Jak'Ulx
	Mut'Nale
	Uti'Tal
	Ryt'Koz
	Cho'Torp
	Sat'Hur
}

ship_names = {
	Tev'Vez Sar'Taki Moj'Bal Tru'Dku Sha'Tyx Mhe'Tepr Kar'Mik Jal'Surk Kok'Gul Jak'Ulx
	Mut'Nale Uti'Tal Ryt'Koz Cho'Torp Sat'Hur
}

army_names = {
	"Army of $PROVINCE$" 
}

fleet_names = {
	"Fleet of $PROVINCE$"
}